Name,Email,Contract,Ni Number,Employment Type,Approver,Contract Start Date,Contract End Date,Collection Day,Timesheet Entry Day,Timesheet Entry Date,Time In,Time Out,Overtime (rate),Overtime (time),Regular (rate),Regular (time),Parking (rate),Parking (quantity),Mobile (rate),Mobile (quantity),
Usama Abdul Haque,usama8890+sp5@hotmail.com,Usama (Internal - New Company),,full_time,Usama Abdul Haque,23/06/2015,01/01/1970,friday,Saturday,15/08/2015,12:00:00,11:59:59,-,-,-,-,-,-,-,-,
Usama Abdul Haque,usama8890+sp5@hotmail.com,Usama (Internal - New Company),,full_time,Usama Abdul Haque,23/06/2015,01/01/1970,friday,Thursday,20/08/2015,09:00:00,06:00:00,10,1.00,10,9.00,10,9.00,10,9.00,
