Name,Email,Contract,Ni Number,Employment Type,Approver,Contract Start Date,Contract End Date,Collection Day,Timesheet Entry Day,Timesheet Entry Date,Time In,Time Out,Overtime (rate),Overtime (time),Travel (rate),Travel (time),Regular (rate),Regular (time),Mobile Balance (rate),Mobile Balance (quantity),Parking (rate),Parking (quantity),
Zohaib Najam,szohaibnajam+6@gmail.com,Zohaib (Internal - Siliconplex 6),,full_time,Zohaib Najam,07/07/2015,01/01/1970,friday,Friday,07/08/2015,12:00:00,12:00:00,10,4.00,10,1.50,10,1.50,10,1.50,10,1.50,
Zohaib Najam,szohaibnajam+6@gmail.com,Zohaib (Out - Siliconplex),,,Usama Haq,10/08/2015,01/01/1970,monday,Tuesday,28/07/2015,12:00:00,11:59:59,-,-,-,-,-,-,-,-,-,-,
Zohaib Najam,szohaibnajam+6@gmail.com,Zohaib (Internal - Siliconplex 6),,full_time,Zohaib Najam,07/07/2015,01/01/1970,friday,Saturday,01/08/2015,12:00:00,12:00:00,10,2.00,10,6.00,10,4.50,10,4.50,10,4.50,
Zohaib Najam,szohaibnajam+6@gmail.com,Zohaib (Out - Siliconplex),,,Usama Haq,10/08/2015,01/01/1970,monday,Saturday,01/08/2015,09:00:00,06:00:00,10,8.00,15,1.50,12,9.00,12,9.00,12,9.00,
Zohaib Najam,szohaibnajam+6@gmail.com,Zohaib (Internal - Siliconplex 6),,full_time,Zohaib Najam,07/07/2015,01/01/1970,friday,Thursday,06/08/2015,12:00:00,12:00:00,10,5.50,10,6.00,10,7.00,10,7.00,10,7.00,
Zohaib Najam,szohaibnajam+6@gmail.com,Zohaib (Internal - Siliconplex 6),,full_time,Zohaib Najam,07/07/2015,01/01/1970,friday,Wednesday,05/08/2015,12:00:00,12:00:00,10,6.50,10,2.00,10,7.00,10,7.00,10,7.00,
