company,name,email,date,
abc,Nawab Drbar,ismail.rehman1@yahoo.com,13/04/2016,
abc,Saleem Ahmed,ismail.siliconplex+sp60@gmail.com,13/04/2016,
abc,Nawab Drbar,ismail.rehman1@yahoo.com,12/04/2016,
abc,Zaque,zaque77@gmail.com,15/01/2016,
abc,Ather Mehdi,athermehdi@gmail.com,15/01/2016,
abc,Usama,usama8890@hotmail.com,15/01/2016,
abc,Nawab Drbar,ismail.siliconplex@gmail.com,18/12/2015,
abc,Nawab Drbar,ismail.siliconplex@gmail.com,18/12/2015,
