name,created_at,time_in,time_out,total_time,total_lunch,status,
abc abc,16/12/2015,10:21 pm,10:32 pm,660,0,pending,
abc abc,17/12/2015,06:32 am,06:34 am,129,4,pending,
abc abc,18/12/2015,03:14 pm,03:18 pm,199,49,pending,
abc abc,22/12/2015,11:17 am,01:00 am,0,,pending,
abc abc,24/12/2015,12:59 pm,01:00 pm,74,,pending,
abc abc,29/12/2015,09:42 am,09:43 am,55,12,pending,
abc abc,05/01/2016,02:45 pm,03:52 pm,3998,4,pending,
abc abc,30/01/2016,06:26 pm,06:42 pm,1004,3,pending,
abc abc,17/02/2016,07:22 am,03:49 pm,30407,,pending,
abc abc,07/04/2016,11:43 am,11:43 am,12,,pending,
abc abc,07/04/2016,11:43 am,11:43 am,5,,pending,
abc abc,12/04/2016,03:38 pm,01:00 am,0,,pending,
abc abc,13/04/2016,06:40 am,08:53 am,7958,2750,disapproved,
abc abc,13/04/2016,06:00 am,08:21 am,8460,0,approved,
abc abc,19/04/2016,08:13 am,08:14 am,19,,pending,
abc abc,22/04/2016,01:46 pm,01:00 am,0,,pending,
abc abc,23/04/2016,05:42 pm,10:09 am,145624,,pending,
abc abc,07/05/2016,02:10 pm,01:00 am,0,,pending,
abc abc,07/05/2016,08:50 am,08:50 am,5,,pending,
abc abc,11/08/2016,11:48 am,11:49 am,8,2,pending,
