hours,rate,date,total,job_title,job_reference,job_description,name,
01:30,75,26/09/2016,112.5,insurance,review,Workers comp renewal,Tec EMEA,
12:30,50,28/09/2016,25,insurance,Telephone,Tc Peter Bellwood,Tec EMEA,
01:30,75,17/09/2016,112.5,Media Project,Various,Attending Zaque and Athers to ensure source code etc is passed over properly,Coffipad,
