contract,employee,approver,period,status,payslip,
Full Time,abc abc,abc abc,30/01/2016 to 05/02/2016,pending,N/A,
Full Time,abc abc,abc abc,13/02/2016 to 19/02/2016,pending,N/A,
Full Time,abc abc,abc abc,Custom - <small>(04/12/2015 to 18/12/2015)</small>,pending,N/A,
Full Time,abc abc,abc abc,12/12/2015 to 18/12/2015,pending,N/A,
