name,email,date,job_title,job_reference,hours,rate,expense_value,total,hourly_total,expense_details,
Coffipad,steven@coffipad.com,15/09/2016,Media Project,correspondence,12:10,75,,12.5,1650,,
Coffipad,steven@coffipad.com,17/09/2016,Media Project,Various,01:30,75,,112.5,2325,,
