name,date,job_title,job_reference,hours,rate,expense_value,total,
Ather Mehdi,01/13/16,something,some activity,01:01,10,1000,1012,
Ahsan,01/13/16,my matter,my activity,04:00,130,,520,
fahd,01/13/16,some matter,some activity,01:01,20,232,262,
fahd,01/12/16,some,activeiy,01:00,10,,15,
Ather Mehdi,22/06/2015,,,01:00,20,100,200,
Ather Mehdi,22/06/2015,,,01:00,20,100,200,
Ather Mehdi,08/07/2015,,,01:00,10,20,200,
