contract,employee,approver,period,status,payslip,
Out AgentFive,Micheal Firsts,Speedy System,21/11/2015 to 27/11/2015,approved,N/A,
Full Time,Micheal Firsts,Micheal Firsts,14/11/2015 to 20/11/2015,approved,N/A,
Out SP 88901,Micheal Firsts,Micheal Firsts,09/12/2015 to 15/12/2015,approved,N/A,
Out New Company,Usama Abdul Haque,Usama Abdul Haque,15/08/2015 to 21/08/2015,approved,N/A,
Full Time,Micheal Firsts,Micheal Firsts,01/12/2015 to 01/12/2015,approved,N/A,
Out New Company,Usama Abdul Haque,Usama Abdul Haque,22/09/2015 to 28/09/2015,approved,N/A,
Out New Company,Micheal Firsts,Micheal Firsts,13/11/2015 to 13/11/2015,approved,N/A,
Out New Company,Usama Abdul Haque,Usama Abdul Haque,Custom - <small>(03/08/2015 to 12/08/2015)</small>,approved,N/A,
Out New Company,Usama Abdul Haque,Usama Abdul Haque,06/10/2015 to 12/10/2015,approved,N/A,
Out New Company,Micheal Firsts,Micheal Firsts,05/12/2015 to 11/12/2015,approved,N/A,
Out New Company,Usama Abdul Haque,Usama Abdul Haque,03/10/2015 to 09/10/2015,approved,N/A,
Out New Company,Micheal Firsts,Micheal Firsts,13/11/2015 to 13/11/2015,approved,N/A,
Out New Company,Micheal Firsts,Micheal Firsts,21/12/2015 to 27/12/2015,approved,N/A,
,Agent Anderson,Agent Anderson,15/12/2015 to 21/12/2015,approved,N/A,
,Usama Abdul Haque,Usama Abdul Haque,22/08/2015 to 28/08/2015,approved,N/A,
