name,date,job_title,job_reference,hours,rate,expense_value,total,
Usama,16/02/2016,Hello,Hello,05:00,15,,255,
Usama,10/02/2016,Hello,Hello,03:00,15,,45,
Nawab Drbar,26/02/2016,Hello,Hello,02:00,15,,30,
Usama,10/02/2016,Hello,Hello,11:34,15,,353.7,
Usama,17/02/2016,Hello,Hello,09:00,15,,330,
Usama,17/02/2016,Hello,Hello,04:00,15,,60,
Nawab Drbar,12/04/2016,Working in field,Hardware,05:00,5000,,25000,
Nawab Drbar,13/04/2016,Working in field hardware,Hardware,11:00,500,,5500,
Zaque,16/02/2016,some matter,some activity,02:00,23,1000,1046,
Usama,17/02/2016,Hello,Hello,05:00,15,,90,
Nawab Drbar,12/04/2016,Working in field,Hardware,05:00,5000,,25000,
Ather Mehdi,15/01/2016,Matter,Activity,02:00,20,,40,
