rate,job_title,
50,Insurance,
75,Media Project,
75,Media Project,
50,Insurance,
50,Insurance,
75,Media Project,
75,Media Project,
50,General,
75,Media Project,
75,Media Project,
75,Media Project,
50,kbc,
75,Media Project,
50,General,
50,General,
50,Contract Review,
50,Contract Review,
75,Media Project,
50,DED Docs,
75,Media Project,
50,General,
75,Media Project,
50,General,
75,Media Project,
50,Contract Review,
75,Media Project,
75,Media Project,
50,General,
50,Taqa Iraq,
75,various,
50,Chromalloy,
50,Msa,
50,Insurance,
50,Business Travel Insurance,
50,Insurance,
75,Media Project,
50,Health Insurance,
75,Media Project,
50,Delbag,
75,Media Project,
50,Drafting,
50,Memo and Articles,
50,General,
75,Media Project,
50,Redwood,
75,Media Project,
50,Ryanair,
50,Redwood,
75,Media Project,
50,Contract Review,
50,Contract Review,
50,Contract review,
50,General,
50,Chromalloy,
50,General,
75,Media Project,
50,General,
50,Venn LIfe Sciences,
50,General,
75,Media Project,
50,Prestwick MSA,
50,Contract Review,
50,Telephone,
75,Media Project,
75,Media Project,
50,Wonderworld,
50,Williams and Glynn,
50,Cigma Tender,
75,Media Project,
50,CIS ,
50,Spirit Aviation,
75,Media Project,
50,Insurance,
75,Media Project,
50,Business Travel Insurance,
50,Msa,
75,Media Project,
50,General,
50,Spirit Aviation,
75,Media Project,
50,General,
50,Wonderworld,
50,Media Project,
75,Media Project,
75,Media Project,
50,Business Travel Insurance,
75,Media Project,
50,Wonderworld,
50,Chromalloy,
50,General,
50,General,
50,NOw HEalth,
75,Media Project,
50,Insurance,
50,Contract Review,
50,KRG Contract,
50,Board Minute,
75,Media Project,
50,Contract Review,
50,KBC,
50,KBC,
50,Insurance,
50,Chromalloy,
50,General,
75,Media Project,
75,Media Project,
50,Rasgas Tender,
75,Media Project,
75,Media Project,
75,Media Project,
75,Contracts,
75,Media Project,
75,Media Project,
75,Media Project,
50,Insurance,
50,Contract Review,
75,Media Project,
75,Media Project,
50,General,
75,insurance,
50,New Legislation,
50,Insurance,
50,General,
50,Rent Deposits,
50,UAE TAx Authorities,
75,Media Project,
75,Media Project,
50,Insurance,
50,sapiem,
75,Media Project,
50,General,
75,Media Project,
75,Media Project,
50,Williams and Glynn,
50,General,
50,Contract review,
50,kbc,
75,Media Project,
75,Media Project,
50,Fleet Insurance,
75,Media Project,
75,Media Project,
50,General,
50,Taqa Iraq,
50,Contract Review,
75,Media Project,
50,Chromalloy,
75,Media Project,
75,media,
50,Burness,
50,Scottish Power,
50,Contract Review,
75,Media Project,
50,Contract Review,
50,Contract Review,
50,Insurance,
50,Wonderworld,
50,Jacobs Ireland,
50,New Legislation,
75,Media Project,
50,KBC,
50,Contracts,
50,scotsman,
50,Centralaus,
50,General,
50,General,
50,various,
50,Contract Review,
50,kbc,
50,Wonderworld,
75,Media Project,
50,Redwood,
50,Insurance,
50,Wonderworld,
75,Media Project,
50,Insurance,
75,Media Project,
75,Media Project,
50,Licence,
50,Ryanair Side Letter,
50,Health Insurance,
75,Media Project,
50,insur,
50,insurance,
50,Contract review,
50,MacLaughlin  and Harvey,
50,New Legislation,
75,Media Project,
75,Media Project,
50,Contract Review,
50,Insurance,
75,Media Project,
50,Contract Review,
75,Media Project,
75,Media Project,
50,KBC,
50,Centralaus,
50,New Legislation,
75,Media Project,
50,Trinity Mirror,
50,Contract Review,
50,NATS,
50,personal accident covr,
50,Taqa Iraq,
75,Media Project,
75,Media Project,
50,Share Transfer (LA),
50,General,
75,Media Project,
50,Aegem,
75,Media Project,
50,Msa,
50,kbc,
75,Media Project,
75,Media Project,
50,Redwood,
50,Sale ,
50,Contract Review,
50,scotsman,
50,NOw HEalth,
50,Wonderworld,
75,Media Project,
50,Chromalloy,
75,Media Project,
50,MacLaughlin  and Harvey,
75,Media Project,
75,Media Project,
50,Cigma Tender,
50,General,
50,General,
50,Tec USA,
50,Insurance,
75,Media Project,
75,Media Project,
75,Media Project,
50,kbc,
75,Media Project,
50,Scottish Power,
50,DED Docs,
50,Contract Review,
75,media,
75,Media Project,
50,General,
50,Contract Review,
75,Media Project,
50,Contracts,
50,Insurance,
50,Spirit Aviation,
75,Media Project,
75,Media Project,
50,Contract Review,
75,Media Project,
50,kbc,
50,Contracts,
75,Media Project,
75,Amendments to mailer,
75,Media Project,
50,Insurance,
50,Insurance,
50,KRG Contract,
75,Media Project,
75,Media Project,
75,Media Project,
50,ENI,
75,Media Project,
75,Media Project,
75,Media Project,
75,Media Project,
75,Media Project,
75,Media Project,
50,General,
75,Media Project,
50,Insurance,
50,Contract Review,
50,Media Project,
50,telephone,
75,Media Project,
75,Media Project,
75,Media Project,
50,Contract Review,
75,Media Project,
75,Media Project,
50,Wonderworld,
50,kbc,
50,Wonderworld,
50,Vaultdawn,
50,scotsman,
50,Kathleen Peters,
50,Delbag,
75,Media Project,
75,Media Project,
50,Insurance,
50,Syngenta Corp,
50,Taqa Iraq,
50,Contract Review,
50,General,
50,Weir Group,
75,Media Project,
50,Kidnap and Ransom Cover,
50,Insurance,
75,Media Project,
75,Media Project,
50,General,
50,Wonderworld,
50,Syngenta Corp,
50,Contract Review,
50,Wonderworld,
50,MacLaughlin  and Harvey,
75,media,
50,Openbook,
50,Business Travel Insurance,
75,Media Project,
50,DED Docs,
75,Media Project,
50,Prismond RSA,
50,Insurance,
50,Trinity Mirror,
50,Contract Review,
75,Media Project,
75,Media Project,
75,Media Project,
50,Insurance,
50,Tenants Deposit Scheme,
50,Insurance,
50,Wonderworld,
50,Syngenta Corp,
75,Media Project,
50,Wonderworld,
75,Media Project,
50,correspondence ,
50,Media Project,
75,Media Project,
50,Insurance,
75,Media Project,
50,Aegem,
50,Contract Review,
50,Aegem,
50,Insurance,
50,Spirit Aviation,
50,Contract Review,
75,Media Project,
75,Media Project,
75,Media Project,
75,Media Project,
50,Insurance,
75,Media Project,
50,Spirit Aviation,
50,Wonderworld,
75,Media Project,
50,Contract review,
50,Msa,
75,Media Project,
75,Media Project,
75,Media Project,
50,Health Insurance,
50,Contract Review,
75,Media Project,
50,Contract Review,
50,Contract review,
75,Media Project,
75,Media Project,
75,media,
50,Insurance,
50,Contract review,
50,Contract Review,
75,media,
75,Car insurance,
50,Contract Review,
75,media,
50,Contract Review,
75,Media Project,
50,Insurance,
75,Media Project,
50,Dubai Licence,
50,Centralaus,
75,Media Project,
50,kbc,
50,Contract Review,
50,General,
50,Insurance,
75,Media Project,
50,ENI,
75,Media Project,
75,Media Project,
50,drafting,
50,New Legislation,
50,Balmoral Hotel,
75,Media Project,
50,Contract Review,
50,New Legislation,
75,Media Project,
50,Share transfer (WILL),
75,Media Project,
50,Insurance,
50,Wonderworld,
50,io oil,
75,Media Project,
50,Redwood,
50,Trinity Mirror,
75,Media Project,
50,Insurance,
50,Health Insurance,
50,Qatar Petroleum,
50,Wonderworld,
50,Motor Insurance,
