name,email,date,job_title,job_reference,hours,rate,expense_value,total,hourly_total,expense_details,
Usama,usama8890@hotmail.com,16/02/2016,Hello,Hello,05:00,15,,255,75,,
Usama,usama8890@hotmail.com,10/02/2016,Hello,Hello,03:00,15,,45,45,,
Nawab Drbar,ismail.siliconplex@gmail.com,26/02/2016,Hello,Hello,02:00,15,,30,30,,
Usama,usama8890@hotmail.com,10/02/2016,Hello,Hello,11:34,15,,353.7,675,,
Nawab Drbar,ismail.rehman1@yahoo.com,15/04/2016,Working in field,Hardware,02:30,10000,,25000,320000,,
Usama,usama8890@hotmail.com,17/02/2016,Hello,Hello,09:00,15,,330,135,,
Usama,usama8890@hotmail.com,17/02/2016,Hello,Hello,04:00,15,,60,60,,
Nawab Drbar,ismail.rehman1@yahoo.com,12/04/2016,Working in field,Hardware,05:00,5000,,25000,25000,,
demofai,demofai@demo.com,05/08/2016,serve,electric ,02:00,6,12,24,12,faizan : 12 : good-,
Tahir,ismail.siliconplex+sp76@gmail.com,13/04/2016,Working in field,Hardware,12:15,1000,200,450,27000,hardware : 200 : good-,
Nawab Drbar,ismail.rehman1@yahoo.com,13/04/2016,Working in field hardware,Hardware,11:00,500,,5500,5500,,
Zaque,zaque77@gmail.com,16/02/2016,some matter,some activity,02:00,23,1000,1046,46,Calvin Harris : 1000 : some comment-,
Usama,usama8890@hotmail.com,17/02/2016,Hello,Hello,05:00,15,,90,75,,
Nawab Drbar,ismail.rehman1@yahoo.com,12/04/2016,Working in field,Hardware,05:00,5000,,25000,25000,,
Ather Mehdi,athermehdi@gmail.com,15/01/2016,Matter,Activity,02:00,20,,40,40,,
