name,email,date,job_title,job_reference,hours,rate,expense_value,total,hourly_total,expense_details,
Coffipad,steven@coffipad.com,30/03/2016,Media Project,email,12:05,75,,3.75,1275,,
Tec USA,steven@coffipad.com,05/04/2016,kbc,Drafting,01:00,50,,50,50,,
Coffipad,steven@coffipad.com,01/03/2016,Media Project,Correspondence,12:05,75,,3.75,1275,,
MyBpos,steven@coffipad.com,26/04/2016,General,Meeting,01:00,50,,50,50,,
Tec uk,steven@coffipad.com,25/04/2016,General,Drafting,12:30,50,,25,2100,,
Tec uk,steven@coffipad.com,26/04/2016,Contract Review,Review,12:15,50,,12.5,1350,,
L A Recruitment,steven@coffipad.com,26/04/2016,Contract Review,Review,03:00,50,,150,150,,
Coffipad,steven@coffipad.com,29/03/2016,Media Project,meeting,12:15,75,,11.25,2025,,
Tec EMEA,steven@coffipad.com,04/04/2016,DED Docs,Correspondence,12:20,50,,16.67,1600,,
Coffipad,steven@coffipad.com,18/04/2016,Media Project,Telepohone,01:30,75,,112.5,2325,,
Tec USA,steven@coffipad.com,12/04/2016,General,te with Adam,12:15,50,,12.5,1350,,
Coffipad,steven@coffipad.com,04/05/2016,Media Project,Telephone,12:20,75,,25,2400,,
MyBpos,steven@coffipad.com,05/04/2016,General,Telephone,12:10,50,,8.33,1100,,
Coffipad,steven@coffipad.com,30/03/2016,Media Project,meeting,02:00,75,,150,150,,
FPS,steven@coffipad.com,06/07/2016,Contract Review,Review,02:00,50,,100,100,,
Coffipad,steven@coffipad.com,27/04/2016,Media Project,meetings,03:00,75,,225,225,,
Coffipad,steven@coffipad.com,09/04/2016,Media Project,Meeting,12:15,75,,18.75,2025,,
Tec uk,steven@coffipad.com,14/04/2016,General,Telepohone,12:10,50,,8.33,1100,,
Tec EMEA,steven@coffipad.com,31/03/2016,Taqa Iraq,Telephone,12:15,50,,7.5,1350,,
Coffipad,steven@coffipad.com,01/08/2016,various,Meteting and phone calls,05:00,75,,375,375,,
FPS,steven@coffipad.com,18/07/2016,Chromalloy,drafting and correspondence,12:15,50,,12.5,1350,,
MyBpos,steven@coffipad.com,26/07/2016,Insurance,Review,12:15,50,,12.5,1350,,
Tec EMEA,steven@coffipad.com,05/07/2016,Business Travel Insurance,Correspondence,12:30,50,,25,2100,,
Coffipad,steven@coffipad.com,16/05/2016,Media Project,Meeting,12:10,75,,12.5,1650,,
Coffipad,steven@coffipad.com,25/08/2016,Media Project,Telephone,01:00,75,,75,75,,
Net Talent,steven@coffipad.com,06/07/2016,Delbag,Review and Drafting,12:15,50,,12.5,1350,,
Net Talent,steven@coffipad.com,04/07/2016,Drafting,Documents,01:00,50,,50,50,,
L A Recruitment,steven@coffipad.com,06/06/2016,Memo and Articles,Review,01:30,50,,75,1550,,
MyBpos,steven@coffipad.com,19/04/2016,General,Telepohone,12:10,50,,8.33,1100,,
Coffipad,steven@coffipad.com,25/04/2016,Media Project,marketing,09:00,75,,675,675,,
Engage PSG,steven@coffipad.com,25/07/2016,Redwood,correspondence,12:10,50,,8.33,1100,,
FPS,steven@coffipad.com,26/04/2016,Ryanair,Spanish Declaration,12:15,50,,12.5,1350,,
Coffipad,steven@coffipad.com,05/05/2016,Media Project,Telephone,12:50,75,,62.5,4650,,
FPS,steven@coffipad.com,06/06/2016,Contract Review,Review,01:00,50,,50,50,,
Net Talent,steven@coffipad.com,05/07/2016,Contract Review,Cigma Contract,01:30,50,,75,1550,,
MyBpos,steven@coffipad.com,20/04/2016,General,Review email and position re Clyde Corrosion,12:15,50,,12.5,1350,,
FPS,steven@coffipad.com,15/07/2016,Chromalloy,Review and Drafting,12:15,50,,12.5,1350,,
Coffipad,steven@coffipad.com,31/03/2016,Media Project,Telephone,12:20,75,,15,2400,,
MyBpos,steven@coffipad.com,29/03/2016,General,Telephone,12:10,50,,5,1100,,
Tec uk,steven@coffipad.com,01/04/2016,Venn LIfe Sciences,Contract Review,01:30,50,,75,1550,,
MyBpos,steven@coffipad.com,04/07/2016,General,Telephone,12:15,50,,12.5,1350,,
MyBpos,steven@coffipad.com,15/04/2016,Contract Review,Review,01:30,50,,75,1550,,
Tec EMEA,steven@coffipad.com,22/07/2016,Telephone,Telephone,12:15,50,,12.5,1350,,
Coffipad,steven@coffipad.com,18/03/2016,Media Project,Meeting,08:00,75,,600,600,,
Net Talent,steven@coffipad.com,11/08/2016,Cigma Tender,correspondence,12:05,50,,4.17,850,,
FPS,steven@coffipad.com,13/07/2016,Spirit Aviation,correspondence,12:20,50,,16.67,1600,,
Coffipad,steven@coffipad.com,29/03/2016,Media Project,Meeting,01:30,75,,97.5,2325,,
Tec EMEA,steven@coffipad.com,11/07/2016,Insurance,Correspondence,12:15,50,,12.5,1350,,
Coffipad,steven@coffipad.com,18/03/2016,Media Project,Telephone,12:30,75,,22.5,3150,,
Tec EMEA,steven@coffipad.com,05/07/2016,Business Travel Insurance,Correspondence,01:00,50,,50,50,,
Tec uk,steven@coffipad.com,19/07/2016,General,Telephone,12:15,50,,12.5,1350,,
FPS,steven@coffipad.com,15/07/2016,Spirit Aviation,Telephone,12:15,50,,12.5,1350,,
Coffipad,steven@coffipad.com,28/03/2016,Media Project,Telephone,01:45,75,,108.75,3450,,
MyBpos,steven@coffipad.com,05/04/2016,General,Telephone,12:10,50,,8.33,1100,,
Net Talent,steven@coffipad.com,30/03/2016,Wonderworld,Correspondence,12:05,50,,2.5,850,,
Coffipad,steven@coffipad.com,01/04/2016,Media Project,Telephone,01:15,50,,62.5,800,,
Tec EMEA,steven@coffipad.com,10/07/2016,Business Travel Insurance,Correspondence,12:05,50,,4.17,850,,
FPS,steven@coffipad.com,14/07/2016,Chromalloy,Contract Review,02:30,50,,125,1600,,
Tec EMEA,steven@coffipad.com,20/04/2016,General,Telephone,12:10,50,,8.33,1100,,
MyBpos,steven@coffipad.com,22/08/2016,General,correspondence,12:05,50,,4.17,850,,
Tec EMEA,steven@coffipad.com,12/08/2016,NOw HEalth,correspondence,12:05,50,,4.17,850,,
Coffipad,steven@coffipad.com,26/08/2016,Media Project,Telephone,12:20,75,,25,2400,,
L A Recruitment,steven@coffipad.com,11/03/2016,Insurance,Telephone,12:15,50,,7.5,1350,,
Tec uk,steven@coffipad.com,01/03/2016,Contract Review,MOLGroup Contract,01:30,50,,65,1550,,
Tec EMEA,steven@coffipad.com,01/03/2016,KRG Contract,Correspondence ,12:15,50,,7.5,1350,,
L A Recruitment,steven@coffipad.com,14/03/2016,Board Minute,Drafting,01:00,50,,50,50,,
Tec USA,steven@coffipad.com,21/04/2016,KBC,Drafting,01:10,50,,58.33,550,,
Tec USA,steven@coffipad.com,05/04/2016,KBC,Drafting,12:30,50,,25,2100,,
Tec EMEA,steven@coffipad.com,16/05/2016,Insurance,Telephone,12:15,50,,12.5,1350,,
FPS,steven@coffipad.com,21/07/2016,Chromalloy,correspondence,12:10,50,,8.33,1100,,
FPS,steven@coffipad.com,07/07/2016,General,Correspondence,12:05,50,,4.17,850,,
Coffipad,steven@coffipad.com,11/03/2016,Media Project,Meeting,01:30,75,,97.5,2325,,
Coffipad,steven@coffipad.com,11/04/2016,Media Project,Meeting,05:00,75,,375,375,,
L A Recruitment,steven@coffipad.com,29/04/2016,Rasgas Tender,Telephone,12:15,50,,12.5,1350,,
MyBpos,steven@coffipad.com,30/03/2016,Contracts,email,12:05,75,,3.75,1275,,
Coffipad,steven@coffipad.com,01/03/2016,Media Project,Correspondence,12:05,75,,3.75,1275,,
Coffipad,steven@coffipad.com,05/03/2016,Media Project,Correspondence ,12:05,75,,3.75,1275,,
Coffipad,steven@coffipad.com,16/05/2016,Media Project,Telephone,12:10,75,,12.5,1650,,
Tec uk,steven@coffipad.com,01/03/2016,Contract Review,Amending Contract,12:10,50,,5,1100,,
Coffipad,steven@coffipad.com,01/04/2016,Media Project,Various,03:00,75,,225,225,,
Coffipad,steven@coffipad.com,29/03/2016,Media Project,Drafting,12:15,75,,11.25,2025,,
MyBpos,steven@coffipad.com,26/04/2016,General,Meeting,01:00,50,,50,50,,
FPS,steven@coffipad.com,04/03/2016,New Legislation,Correspondence ,12:05,50,,2.5,850,,
L A Recruitment,steven@coffipad.com,16/03/2016,Insurance,review,01:31,50,,65.5,1600,,
FPS,steven@coffipad.com,06/04/2016,General,Correspondence,12:15,50,,12.5,1350,,
MyBpos,steven@coffipad.com,04/08/2016,Rent Deposits,Telephone ,12:10,50,,8.33,1100,,
L A Recruitment,steven@coffipad.com,29/02/2016,UAE TAx Authorities,Meeting,01:30,50,,65,1550,,
Coffipad,steven@coffipad.com,25/03/2016,Media Project,Telephone,01:55,75,,116.25,4200,,
Coffipad,steven@coffipad.com,31/03/2016,Media Project,Correspondence,12:10,75,,7.5,1650,,
Tec uk,steven@coffipad.com,29/03/2016,sapiem,review,12:15,50,,7.5,1350,,
Coffipad,steven@coffipad.com,04/05/2016,Media Project,Telephone,12:20,75,,25,2400,,
MyBpos,steven@coffipad.com,05/04/2016,General,Drafting,12:05,50,,2.5,850,,
Coffipad,steven@coffipad.com,08/03/2016,Media Project,correspondence,12:05,75,,3.75,1275,,
Engage PSG,steven@coffipad.com,11/04/2016,General,Correspondence,12:10,50,,8.33,1100,,
Tec USA,steven@coffipad.com,23/03/2016,kbc,Drafting,01:30,50,,65,1550,,
Coffipad,steven@coffipad.com,01/04/2016,Media Project,Drafting,12:15,75,,18.75,2025,,
MyBpos,steven@coffipad.com,24/08/2016,Fleet Insurance,Review ,12:30,50,,25,2100,,
Coffipad,steven@coffipad.com,31/03/2016,Media Project,Telephone,12:47,75,,35.25,4425,,
Coffipad,steven@coffipad.com,09/03/2016,Media Project,Meeting,06:30,75,,472.5,2700,,
Tec EMEA,steven@coffipad.com,30/03/2016,General,Review,12:10,50,,5,1100,,
Tec EMEA,steven@coffipad.com,14/03/2016,Taqa Iraq,Review,01:00,50,,50,50,,
Tec uk,steven@coffipad.com,01/03/2016,Contract Review,review,02:00,50,,100,100,,
Coffipad,steven@coffipad.com,25/08/2016,Media Project,Meeting,12:40,75,,50,3900,,
FPS,steven@coffipad.com,14/07/2016,Chromalloy,Review and Drafting,01:00,50,,50,50,,
L A Recruitment,steven@coffipad.com,19/07/2016,Burness,correspondence,12:05,50,,4.17,850,,
FPS,steven@coffipad.com,01/03/2016,Contract Review,Review,01:00,50,,50,50,,
FPS,steven@coffipad.com,27/04/2016,Contract Review,Friokheim WWTW,01:30,50,,75,1550,,
FPS,steven@coffipad.com,27/04/2016,Jacobs Ireland,Telepohone,12:15,50,,12.5,1350,,
FPS,steven@coffipad.com,08/03/2016,New Legislation,Correspondence,12:10,50,,5,1100,,
Coffipad,steven@coffipad.com,16/05/2016,Media Project,Telephone,12:10,75,,12.5,1650,,
Tec USA,steven@coffipad.com,04/04/2016,KBC,Drafting,12:15,50,,7.5,1350,,
Tec USA,steven@coffipad.com,30/03/2016,Contracts,Telephone,12:05,50,,2.5,850,,
Tec USA,steven@coffipad.com,26/04/2016,General,Telephone,12:10,50,,8.33,1100,,
Tec uk,steven@coffipad.com,11/04/2016,General,Telephone,12:05,50,,4.17,850,,
Tec USA,steven@coffipad.com,07/03/2016,various,Telephone,12:15,50,,7.5,1350,,
Tec USA,steven@coffipad.com,11/04/2016,Contract Review,Correspondence,12:15,50,,12.5,1350,,
Tec USA,steven@coffipad.com,21/03/2016,kbc,correspondence,12:10,50,,5,1100,,
Net Talent,steven@coffipad.com,25/07/2016,Wonderworld,Telephone,12:30,50,,25,2100,,
Coffipad,steven@coffipad.com,14/05/2016,Media Project,correspondence,01:00,75,,75,75,,
Engage PSG,steven@coffipad.com,22/04/2016,Redwood,Telephone,12:10,50,,8.33,1100,,
Tec USA,steven@coffipad.com,22/04/2016,Insurance,Telephone,12:15,50,,12.5,1350,,
Net Talent,steven@coffipad.com,05/07/2016,Wonderworld,Correspondence,12:05,50,,4.17,850,,
Coffipad,steven@coffipad.com,09/03/2016,Media Project,Telephone,01:00,75,,75,75,,
Tec USA,steven@coffipad.com,07/03/2016,Insurance,Telephone,12:15,50,,7.5,1350,,
Coffipad,steven@coffipad.com,13/04/2016,Media Project,Meeting,05:00,75,,375,375,,
Tec EMEA,steven@coffipad.com,07/03/2016,Licence,Correspondence,12:15,50,,7.5,1350,,
Tec uk,steven@coffipad.com,16/03/2016,Health Insurance,Updates re Health Cover,12:15,50,,7.5,1350,,
Coffipad,steven@coffipad.com,01/04/2016,Media Project,Telepohone,01:00,75,,75,75,,
L A Recruitment,steven@coffipad.com,13/05/2016,insur,Review,03:00,50,,150,150,,
FPS,steven@coffipad.com,20/04/2016,MacLaughlin  and Harvey,Telephone,12:30,50,,25,2100,,
FPS,steven@coffipad.com,27/04/2016,New Legislation,Meeting,02:00,50,,100,100,,
Coffipad,steven@coffipad.com,26/08/2016,Media Project,Telephone,12:20,75,,25,2400,,
Coffipad,steven@coffipad.com,13/05/2016,Media Project,Various,09:00,75,,675,675,,
FPS,steven@coffipad.com,05/04/2016,Contract Review,Review,01:30,50,,75,1550,,
Tec EMEA,steven@coffipad.com,22/04/2016,Insurance,INsurance for Saudi,02:00,50,,100,100,,
Coffipad,steven@coffipad.com,21/04/2016,Media Project,drafting,01:30,75,,112.5,2325,,
Tec USA,steven@coffipad.com,21/03/2016,Contract Review,review,02:00,50,,100,100,,
Coffipad,steven@coffipad.com,06/03/2016,Media Project,Correspondence ,12:05,75,,3.75,1275,,
Coffipad,steven@coffipad.com,30/03/2016,Media Project,meeting,12:05,75,,3.75,1275,,
Tec USA,steven@coffipad.com,05/04/2016,KBC,Telephone,12:20,50,,16.67,1600,,
FPS,steven@coffipad.com,05/04/2016,Centralaus,Correspondence,12:15,50,,12.5,1350,,
FPS,steven@coffipad.com,03/03/2016,New Legislation,Correspondence ,12:10,50,,5,1100,,
Coffipad,steven@coffipad.com,29/03/2016,Media Project,Telephone,12:40,75,,30,3900,,
FPSG,steven@coffipad.com,15/07/2016,Trinity Mirror,correspondence,12:15,50,,12.5,1350,,
FPS,steven@coffipad.com,29/03/2016,NATS,Review and Telephone,01:00,50,,50,50,,
Tec EMEA,steven@coffipad.com,14/07/2016,personal accident covr,correspondence,12:05,50,,4.17,850,,
Tec EMEA,steven@coffipad.com,31/03/2016,Taqa Iraq,Consideration,12:45,50,,22.5,2850,,
Coffipad,steven@coffipad.com,04/05/2016,Media Project,Meeting,01:00,75,,75,75,,
Tec uk,steven@coffipad.com,05/04/2016,Share Transfer (LA),email,12:05,50,,2.5,850,,
MyBpos,steven@coffipad.com,14/03/2016,General,Meeting,01:00,50,,50,50,,
Coffipad,steven@coffipad.com,07/03/2016,Media Project,Correspondence ,12:05,75,,3.75,1275,,
FPS,steven@coffipad.com,19/07/2016,Aegem,Drafting,12:15,50,,12.5,1350,,
Coffipad,steven@coffipad.com,26/08/2016,Media Project,Meeting,01:00,75,,75,75,,
Tec USA,steven@coffipad.com,08/03/2016,kbc,Correspondence,12:05,50,,2.5,850,,
Coffipad,steven@coffipad.com,26/08/2016,Media Project,Telephone,12:15,75,,18.75,2025,,
Coffipad,steven@coffipad.com,02/03/2016,Media Project,Correspondence,12:05,75,,3.75,1275,,
Engage PSG,steven@coffipad.com,14/03/2016,Redwood,correspondence,12:05,50,,2.5,850,,
Tralee Bay,steven@coffipad.com,30/03/2016,Sale ,Correspondence,12:05,50,,2.5,850,,
Tec uk,steven@coffipad.com,11/04/2016,Contract Review,draft,01:30,50,,75,1550,,
Tec EMEA,steven@coffipad.com,04/07/2016,NOw HEalth,Correspondence - Email Robert Re policy and questions,12:15,50,,12.5,1350,,
Net Talent,steven@coffipad.com,09/03/2016,Wonderworld,correspondence,12:06,50,,3,900,,
FPS,steven@coffipad.com,22/07/2016,Chromalloy,Correspondence ,12:05,50,,4.17,850,,
Coffipad,steven@coffipad.com,26/03/2016,Media Project,Research,02:00,75,,150,150,,
FPS,steven@coffipad.com,06/04/2016,MacLaughlin  and Harvey,Email,12:05,50,,2.5,850,,
Coffipad,steven@coffipad.com,21/04/2016,Media Project,drafting,01:30,75,,112.5,2325,,
Net Talent,steven@coffipad.com,11/07/2016,Cigma Tender,Correspondence,12:15,50,,12.5,1350,,
MyBpos,steven@coffipad.com,25/04/2016,General,Review,12:30,50,,25,2100,,
Tec USA,steven@coffipad.com,01/03/2016,Tec USA,Insurnace,02:00,50,,100,100,,
Tec EMEA,steven@coffipad.com,07/07/2016,Insurance,Correspondence,12:10,50,,8.33,1100,,
Coffipad,steven@coffipad.com,29/03/2016,Media Project,Meeting,01:30,75,,97.5,2325,,
Coffipad,steven@coffipad.com,12/05/2016,Media Project,Telephone,12:30,75,,37.5,3150,,
Coffipad,steven@coffipad.com,18/03/2016,Media Project,Meeting,08:00,75,,600,600,,
Tec USA,steven@coffipad.com,04/03/2016,kbc,Correspondence ,12:05,50,,2.5,850,,
Coffipad,steven@coffipad.com,08/03/2016,Media Project,Correspondence,12:05,75,,3.75,1275,,
Tec EMEA,steven@coffipad.com,04/04/2016,DED Docs,Correspondence,12:15,50,,12.5,1350,,
FPS,steven@coffipad.com,20/04/2016,Contract Review,Review,02:00,50,,100,100,,
Tec uk,steven@coffipad.com,04/04/2016,General,Drafting,12:30,50,,25,2100,,
FPS,steven@coffipad.com,04/04/2016,Contract Review,Review,01:30,50,,75,1550,,
L A Recruitment,steven@coffipad.com,24/04/2016,Contracts,Review,01:30,50,,75,1550,,
Tec uk,steven@coffipad.com,21/03/2016,Insurance,Telephone,12:15,50,,7.5,1350,,
FPS,steven@coffipad.com,11/07/2016,Spirit Aviation,Correspondence,12:15,50,,12.5,1350,,
Coffipad,steven@coffipad.com,17/03/2016,Media Project,correspondence,12:10,75,,7.5,1650,,
Coffipad,steven@coffipad.com,21/04/2016,Media Project,Drafting,03:00,75,,225,225,,
Coffipad,steven@coffipad.com,31/03/2016,Media Project,Correspondence,12:05,75,,3.75,1275,,
Tec USA,steven@coffipad.com,03/03/2016,kbc,Drafting,12:15,50,,7.5,1350,,
FPS,steven@coffipad.com,21/04/2016,Contracts,Drafting,12:15,50,,12.5,1350,,
Coffipad,steven@coffipad.com,31/03/2016,Media Project,Drafting,03:00,75,,225,225,,
Coffipad,steven@coffipad.com,23/04/2016,Amendments to mailer,drafting,04:00,75,,300,300,,
Coffipad,steven@coffipad.com,16/05/2016,Media Project,Meeting,12:30,75,,37.5,3150,,
L A Recruitment,steven@coffipad.com,09/03/2016,Insurance,Review,01:30,50,,65,1550,,
Tec EMEA,steven@coffipad.com,01/03/2016,KRG Contract,Correspondence,02:00,50,,100,100,,
Coffipad,steven@coffipad.com,06/06/2016,Media Project,Telephone,02:00,75,,150,150,,
Coffipad,steven@coffipad.com,25/08/2016,Media Project,Telephone,01:00,75,,75,75,,
Tec EMEA,steven@coffipad.com,16/03/2016,ENI,review o,12:30,50,,15,2100,,
Coffipad,steven@coffipad.com,11/04/2016,Media Project,Various,03:00,75,,225,225,,
Coffipad,steven@coffipad.com,30/03/2016,Media Project,Drafting,12:15,75,,11.25,2025,,
Coffipad,steven@coffipad.com,12/05/2016,Media Project,Drafting,12:30,75,,37.5,3150,,
Coffipad,steven@coffipad.com,09/03/2016,Media Project,correspondence,12:05,75,,3.75,1275,,
Coffipad,steven@coffipad.com,03/03/2016,Media Project,Telephone,12:30,75,,22.5,3150,,
L A Recruitment,steven@coffipad.com,05/04/2016,General,Drafting,12:30,50,,25,2100,,
Coffipad,steven@coffipad.com,12/05/2016,Media Project,Telephone,12:20,75,,25,2400,,
FPS,steven@coffipad.com,07/07/2016,Contract Review,Amgem,12:30,50,,25,2100,,
Coffipad,steven@coffipad.com,04/04/2016,Media Project,Telephone,12:15,50,,7.5,1350,,
Engage PSG,steven@coffipad.com,04/07/2016,telephone,Catch up,12:05,50,,4.17,850,,
Coffipad,steven@coffipad.com,26/03/2016,Media Project,Research,04:30,75,,322.5,2550,,
Coffipad,steven@coffipad.com,10/03/2016,Media Project,correspondence,12:05,75,,3.75,1275,,
Coffipad,steven@coffipad.com,25/08/2016,Media Project,Meeting,02:30,75,,187.5,2400,,
Tec USA,steven@coffipad.com,04/05/2016,Contract Review,Review,04:00,50,,200,200,,
Coffipad,steven@coffipad.com,07/03/2016,Media Project,Correspondence ,12:05,75,,3.75,1275,,
Tec USA,steven@coffipad.com,18/03/2016,kbc,Telephone,12:10,50,,5,1100,,
Net Talent,steven@coffipad.com,03/03/2016,Wonderworld,email,12:05,50,,2.5,850,,
FPS,steven@coffipad.com,07/07/2016,Vaultdawn,Correspondence,12:10,50,,8.33,1100,,
Tec uk,steven@coffipad.com,29/02/2016,Kathleen Peters,Correspondence,12:10,50,,5,1100,,
Net Talent,steven@coffipad.com,07/07/2016,Delbag,Correspondence,12:10,50,,8.33,1100,,
Coffipad,steven@coffipad.com,29/03/2016,Media Project,Telephone,12:15,75,,11.25,2025,,
Tec USA,steven@coffipad.com,03/03/2016,Insurance,Meeting,01:00,50,,50,50,,
Tec USA,steven@coffipad.com,05/04/2016,Syngenta Corp,Telephone,12:15,50,,7.5,1350,,
Tec EMEA,steven@coffipad.com,15/03/2016,Taqa Iraq,Telephone,12:15,50,,7.5,1350,,
FPS,steven@coffipad.com,15/03/2016,Contract Review,review,01:30,50,,65,1550,,
MyBpos,steven@coffipad.com,26/04/2016,General,Meeting,01:00,50,,50,50,,
Coffipad,steven@coffipad.com,05/03/2016,Media Project,Drafting,12:45,75,,33.75,4275,,
Tec EMEA,steven@coffipad.com,13/07/2016,Kidnap and Ransom Cover,Telephone,12:15,50,,12.5,1350,,
L A Recruitment,steven@coffipad.com,08/03/2016,Insurance,Telephone,01:30,50,,65,1550,,
Coffipad,steven@coffipad.com,29/04/2016,Media Project,Meeting,09:00,75,,675,675,,
Coffipad,steven@coffipad.com,08/03/2016,Media Project,Conference Call,02:30,75,,172.5,2400,,
L A Recruitment,steven@coffipad.com,06/04/2016,General,Correspondence,12:15,50,,12.5,1350,,
Net Talent,steven@coffipad.com,20/07/2016,Wonderworld,Meeting,12:15,50,,12.5,1350,,
Tec USA,steven@coffipad.com,07/04/2016,Syngenta Corp,Drafting,12:15,50,,12.5,1350,,
Tec uk,steven@coffipad.com,31/03/2016,Contract Review,Review,01:00,50,,50,50,,
Net Talent,steven@coffipad.com,16/03/2016,Wonderworld,correspondence,12:10,50,,5,1100,,
FPS,steven@coffipad.com,05/04/2016,MacLaughlin  and Harvey,Telepohone,12:30,50,,25,2100,,
MyBpos,steven@coffipad.com,01/07/2016,Openbook,Review,12:15,50,,12.5,1350,,
Tec EMEA,steven@coffipad.com,05/07/2016,Business Travel Insurance,Telephone,12:05,50,,4.17,850,,
Tec EMEA,steven@coffipad.com,21/04/2016,DED Docs,Chasing,01:00,50,,50,50,,
Coffipad,steven@coffipad.com,30/03/2016,Media Project,Telephone,12:40,75,,30,3900,,
Tec uk,steven@coffipad.com,06/04/2016,Prismond RSA,Contract Review,01:00,50,,50,50,,
L A Recruitment,steven@coffipad.com,09/03/2016,Insurance,Conference Call,01:00,50,,50,50,,
Coffipad,steven@coffipad.com,07/03/2016,Media Project,Telephone,12:31,75,,23.25,3225,,
Tec USA,steven@coffipad.com,02/03/2016,Insurance,email,12:05,50,,2.5,850,,
Tec USA,steven@coffipad.com,01/03/2016,Insurance,Correspondence ,12:05,50,,2.5,850,,
Tec USA,steven@coffipad.com,05/04/2016,Syngenta Corp,Drafting,12:15,50,,7.5,1350,,
Coffipad,steven@coffipad.com,30/04/2016,Media Project,review,01:00,75,,75,75,,
Coffipad,steven@coffipad.com,29/03/2016,Media Project,Telephone,12:15,75,,11.25,2025,,
Net Talent,steven@coffipad.com,04/07/2016,correspondence ,Email,12:10,50,,8.33,1100,,
Coffipad,steven@coffipad.com,01/03/2016,Media Project,Telephone,12:45,50,,22.5,2850,,
Coffipad,steven@coffipad.com,03/03/2016,Media Project,Correspondence,12:10,75,,7.5,1650,,
Coffipad,steven@coffipad.com,22/03/2016,Media Project,meeting,02:00,75,,150,150,,
Tec uk,steven@coffipad.com,04/04/2016,Contract Review,Review,01:00,50,,50,50,,
FPS,steven@coffipad.com,20/07/2016,Aegem,draft,12:10,50,,8.33,1100,,
Tec uk,steven@coffipad.com,16/03/2016,Insurance,Correspondence ,12:05,50,,2.5,850,,
FPS,steven@coffipad.com,11/07/2016,Spirit Aviation,Various,01:00,50,,50,50,,
FPS,steven@coffipad.com,05/04/2016,Contract Review,Review,02:00,50,,100,100,,
Coffipad,steven@coffipad.com,21/04/2016,Media Project,Meeting,03:00,75,,225,225,,
Coffipad,steven@coffipad.com,15/03/2016,Media Project,Telephone,12:30,75,,22.5,3150,,
Coffipad,steven@coffipad.com,16/05/2016,Media Project,Telephone,12:30,75,,37.5,3150,,
Tec USA,steven@coffipad.com,03/03/2016,Insurance,Telephone,12:05,50,,2.5,850,,
Coffipad,steven@coffipad.com,27/04/2016,Media Project,Meeting,02:00,75,,150,150,,
FPS,steven@coffipad.com,04/07/2016,Spirit Aviation,Review and Drafting,01:15,50,,62.5,800,,
Net Talent,steven@coffipad.com,05/07/2016,Wonderworld,Drafting,12:10,50,,8.33,1100,,
Coffipad,steven@coffipad.com,15/03/2016,Media Project,correspondence,12:05,75,,3.75,1275,,
Coffipad,steven@coffipad.com,26/08/2016,Media Project,Telephone,12:30,75,,37.5,3150,,
Tec USA,steven@coffipad.com,02/03/2016,Contract Review,Drafting,01:00,50,,50,50,,
FPSG,steven@coffipad.com,02/08/2016,Contract Review,Review,02:00,50,,100,100,,
L A Recruitment,steven@coffipad.com,08/03/2016,Insurance,Telephone,12:15,50,,7.5,1350,,
FPS,steven@coffipad.com,02/03/2016,Contract Review,Review,02:00,50,,100,100,,
Coffipad,steven@coffipad.com,24/08/2016,Car insurance,correspondence,12:05,75,,6.25,1275,,
FPSG,steven@coffipad.com,07/03/2016,Contract Review,Review,01:30,50,,65,1550,,
Tec uk,steven@coffipad.com,01/03/2016,Contract Review,Correspondence,12:15,50,,7.5,1350,,
Coffipad,steven@coffipad.com,28/03/2016,Media Project,Correspondence ,01:30,75,,97.5,2325,,
Tec USA,steven@coffipad.com,03/03/2016,Insurance,Review,12:10,50,,5,1100,,
Coffipad,steven@coffipad.com,11/04/2016,Media Project,Review,12:30,75,,22.5,3150,,
Tec EMEA,steven@coffipad.com,14/03/2016,Dubai Licence,Correspondence ,12:05,50,,2.5,850,,
FPS,steven@coffipad.com,05/04/2016,Centralaus,Correspondence,12:30,50,,15,2100,,
Coffipad,steven@coffipad.com,02/03/2016,Media Project,Correspondence,12:15,75,,11.25,2025,,
Tec USA,steven@coffipad.com,08/03/2016,kbc,correspondence,12:15,50,,7.5,1350,,
Tec uk,steven@coffipad.com,01/03/2016,Contract Review,Amending Contract,12:10,50,,5,1100,,
MyBpos,steven@coffipad.com,18/03/2016,General,Telephone,12:26,50,,13,1900,,
Tec USA,steven@coffipad.com,02/03/2016,Insurance,email,12:05,50,,2.5,850,,
Coffipad,steven@coffipad.com,10/03/2016,Media Project,Drafting,01:30,75,,97.5,2325,,
Tec EMEA,steven@coffipad.com,16/03/2016,ENI,Telephone,12:30,50,,15,2100,,
Coffipad,steven@coffipad.com,14/03/2016,Media Project,Telephone,12:40,75,,30,3900,,
Coffipad,steven@coffipad.com,09/03/2016,Media Project,Meeting ,08:00,75,,600,600,,
Tec USA,steven@coffipad.com,04/04/2016,drafting,Drafting,12:10,50,,5,1100,,
FPS,steven@coffipad.com,10/03/2016,New Legislation,Correspondence ,12:10,50,,5,1100,,
FPSG,steven@coffipad.com,14/03/2016,Balmoral Hotel,Telephone,12:10,50,,5,1100,,
Coffipad,steven@coffipad.com,08/03/2016,Media Project,Meeting,01:30,75,,97.5,2325,,
FPS,steven@coffipad.com,04/04/2016,Contract Review,review,01:30,50,,65,1550,,
FPS,steven@coffipad.com,02/03/2016,New Legislation,Correspondence,12:05,50,,2.5,850,,
Coffipad,steven@coffipad.com,25/03/2016,Media Project,Telephone,01:45,75,,108.75,3450,,
Tec uk,steven@coffipad.com,05/04/2016,Share transfer (WILL),email,12:05,50,,2.5,850,,
Coffipad,steven@coffipad.com,03/06/2016,Media Project,Telephone,01:00,75,,75,75,,
Coffipad,steven@coffipad.com,26/04/2016,Media Project,Telephone,12:25,75,,31.25,2775,,
Coffipad,steven@coffipad.com,03/06/2016,Media Project,marketing emails and text for video,05:00,75,,375,375,,
