Name,Email,Contract,Ni Number,Employment Type,Approver,Contract Start Date,Contract End Date,Collection Day,Timesheet Entry Type,Timesheet Entry Day,Timesheet Entry Date,Time In,Time Out,Regular (rate),Regular (time),
Micheal Firsts,usama8890+spnew1@hotmail.com,Micheal (Out - SP 9),,,Micheal Firsts,23/12/2015,01/01/1970,sunday,daily,Thursday,24/12/2015,09:00:00,06:00:00,44,9.00,
Micheal Firsts,usama8890+spnew1@hotmail.com,Micheal (Out - SP 88901),,full_time,Micheal Firsts,23/12/2015,01/01/1970,tuesday,daily,Tuesday,22/12/2015,09:00:00,05:00:00,33,8.00,
Micheal Firsts,usama8890+spnew1@hotmail.com,Micheal (Out - SP 88901),,full_time,Micheal Firsts,23/12/2015,01/01/1970,tuesday,daily,Monday,11/01/2016,09:00:00,06:00:00,33,9.00,
Micheal Firsts,usama8890+spnew1@hotmail.com,Micheal (Internal - 1st Contractors),,full_time,Micheal Firsts,10/05/2015,01/01/1970,friday,daily,Tuesday,08/12/2015,09:00:00,06:00:00,20,9.00,
Micheal Firsts,usama8890+spnew1@hotmail.com,Micheal (Out - SP 9),,,Micheal Firsts,23/12/2015,01/01/1970,sunday,daily,Monday,21/12/2015,09:00:00,06:00:00,44,9.00,
Micheal Firsts,usama8890+spnew1@hotmail.com,Micheal (Out - SP 88901),,full_time,Micheal Firsts,23/12/2015,01/01/1970,tuesday,daily,Monday,21/12/2015,09:00:00,06:00:00,33,9.00,
Micheal Firsts,usama8890+spnew1@hotmail.com,Micheal (Out - SP 88901),,full_time,Micheal Firsts,23/12/2015,01/01/1970,tuesday,daily,Monday,14/12/2015,09:00:00,06:00:00,33,9.00,
Micheal Firsts,usama8890+spnew1@hotmail.com,Micheal (Internal - 1st Contractors),,full_time,Micheal Firsts,10/05/2015,01/01/1970,friday,daily,Saturday,14/11/2015,09:00:00,06:00:00,20,9.00,
Micheal Firsts,usama8890+spnew1@hotmail.com,Micheal (In Out - AgentFive),,,Speedy System,10/05/2015,01/01/1970,friday,daily,Wednesday,25/11/2015,09:00:00,06:00:00,10,9.00,
Micheal Firsts,usama8890+spnew1@hotmail.com,Micheal (Out - Nig Company1),,,Micheal Firsts,24/12/2015,01/01/1970,sunday,daily,Thursday,24/12/2015,09:00:00,03:00:00,33,6.00,
Micheal Firsts,usama8890+spnew1@hotmail.com,Micheal (Out - SP 88901),,full_time,Micheal Firsts,23/12/2015,01/01/1970,tuesday,daily,Thursday,24/12/2015,09:00:00,06:00:00,33,9.00,
Micheal Firsts,usama8890+spnew1@hotmail.com,Micheal (Out - SP 88901),,full_time,Micheal Firsts,23/12/2015,01/01/1970,tuesday,daily,Tuesday,15/12/2015,09:00:00,04:00:00,33,7.00,
Micheal Firsts,usama8890+spnew1@hotmail.com,Micheal (In Out - AgentFive),,,Speedy System,10/05/2015,01/01/1970,friday,daily,Tuesday,08/12/2015,09:00:00,06:00:00,10,9.00,
Agent Anderson,athermehdi+company102@gmail.com,Agent (Out B - Ace Media),,,Agent Anderson,19/12/2015,01/01/1970,monday,daily,Saturday,19/12/2015,09:00:00,06:00:00,22,9.00,
Agent Anderson,athermehdi+company102@gmail.com,Agent (Out B - Ace Media),,,Agent Anderson,19/12/2015,01/01/1970,monday,daily,Tuesday,15/12/2015,09:00:00,06:00:00,22,9.00,
Agent Anderson,athermehdi+company102@gmail.com,Agent (Out B - Ace Media),,,Agent Anderson,19/12/2015,01/01/1970,monday,daily,Wednesday,16/12/2015,09:00:00,06:00:00,22,9.00,
