name,date,job_title,job_reference,hours,rate,expense_value,total,
Strawberry Communications,21/06/2016,MailChimp,Sign up,12:05,9.2,,0.77,
Strawberry Communications,09/06/2016,i-On ads,Adding leads to Base,03:00,9.2,,27.6,
Strawberry Communications,22/06/2016,Base,Add notes,01:30,9.2,,13.8,
Strawberry Communications,21/06/2016,Questionnaire,Making one,12:50,9.2,,7.67,
Strawberry Communications,21/06/2016,Base,Add notes,02:00,9.2,,18.4,
