name,email,date,job_title,job_reference,job_description,hours,rate,expense_value,total,hourly_total,expense_details,
Tec EMEA,steven@coffipad.com,01/09/2016,Insurance,Correspondence,Various correspondece and calls arranging travel insurance for Nigeria,01:00,50,,50,50,,
Coffipad,steven@coffipad.com,01/09/2016,Media Project,Review,Testing and downloading new version of app - liaising with Craig and Ather,03:00,75,,225,225,,
Coffipad,steven@coffipad.com,02/09/2016,Media Project,Meeting,Meeting Techs,03:30,75,,262.5,2475,,
L A Recruitment,steven@coffipad.com,02/09/2016,Insurance,Conference Call,Telecon with Hiscox,01:00,50,,50,50,,
L A Recruitment,steven@coffipad.com,02/09/2016,Insurance,Telephone,Telephone JH,12:15,50,,12.5,1350,,
Coffipad,steven@coffipad.com,02/09/2016,Media Project,correspondence,Arranging mobile phone,12:10,75,,12.5,1650,,
MyBpos,steven@coffipad.com,01/09/2016,Media Project,telephone,Various Calls with Craig,01:30,75,,112.5,2325,,
MyBpos,steven@coffipad.com,01/09/2016,General,telephone,Update Call with Robert Little,12:25,50,,20.83,1850,,
Coffipad,steven@coffipad.com,02/09/2016,Media Project,Telephone ,Craig,01:00,75,,75,75,,
Coffipad,steven@coffipad.com,01/09/2016,Media Project,telephone,Various calls with Alan,12:30,75,,37.5,3150,,
MyBpos,steven@coffipad.com,06/12/2016,General,Telephone,Catch up with Robert,12:15,50,,12.5,1350,,
FPS,steven@coffipad.com,12/12/2016,xpo,discussion on contract,telecon charlene,01:00,50,,50,50,,
L A Recruitment,steven@coffipad.com,12/01/2017,Insurance Claim,Drafting,Email response to insurers,01:00,50,,50,50,,
L A Recruitment,steven@coffipad.com,11/12/2016,local agreement qatar,Correspondence,with will,12:30,50,,25,2100,,
Net Talent,steven@coffipad.com,21/12/2016,oakridge,Correspondence,emails re weeks notice,12:15,50,,12.5,1350,,
L A Recruitment,steven@coffipad.com,21/02/2017,Insurance claim,Telephone,das re the claim being a criminal matter,12:15,50,,12.5,1350,,
Engage PSG,steven@coffipad.com,06/02/2017,Contract review,Licence to occupy,Review and discuss with Robert,12:46,50,,38.33,2900,,
Engage PSG,steven@coffipad.com,07/10/2016,Redwood,correspondence,kevin,12:15,50,,12.5,1350,,
L A Recruitment,steven@coffipad.com,18/12/2016,Insurance,Meeting,john and robert,01:30,50,,75,1550,,
Net Talent,steven@coffipad.com,13/12/2016,oakridge,Review ,correspondence,12:30,50,,25,2100,,
MyBpos,steven@coffipad.com,06/10/2016,insurance,queries re fleet policy,answering,12:16,50,,13.33,1400,,
L A Recruitment,steven@coffipad.com,13/12/2016,Insurance,Review ,previous group policy,01:30,50,,75,1550,,
Coffipad,steven@coffipad.com,07/10/2016,Media Project,drafting timely ,equivalent,05:30,75,,412.5,2625,,
FPS,steven@coffipad.com,05/12/2016,Easyjet,Contract Review,Telephone attendance with Easyjet re the terms of the contract, reporting theron.,12:15,50,,12.5,1350,,
Net Talent,steven@coffipad.com,05/12/2016,oakcrew,Drafing,letter to oakcrew,12:15,50,,12.5,1350,,
Net Talent,steven@coffipad.com,05/12/2016,Oakcrew,review,letter from oakcrew layers and drafting response,12:30,50,,25,2100,,
SCCP,steven@coffipad.com,28/02/2017,RCN,Reiew of terms,re insurance queries,01:00,50,,50,50,,
L A Recruitment,steven@coffipad.com,23/12/2016,Insurance,Correspondence,various emails,12:15,50,,12.5,1350,,
Net Talent,steven@coffipad.com,20/02/2017,paystream,Review,discussion on queries on paystream contract,12:45,50,,37.5,2850,,
L A Recruitment,steven@coffipad.com,19/12/2016,Insurance,Correspondence,various,12:15,50,,12.5,1350,,
L A Recruitment,steven@coffipad.com,21/02/2017,qatar gas,Drafting,review and comments on tender,03:30,50,,175,1650,,
Tec USA,steven@coffipad.com,06/02/2017,USA Insurance,Correspondence,Various emails with Stuart from Struart at KIngsbridge,12:30,50,,25,2100,,
Coffipad,steven@coffipad.com,05/10/2016,Media Project,Drafting,agreement for distribution and various calls with craig,04:30,75,,337.5,2550,,
FPSG,steven@coffipad.com,06/10/2016,General,telephone scott m,discussion,12:15,50,,12.5,1350,,
L A Recruitment,steven@coffipad.com,23/12/2016,Insurance,Telephone,john hailstone,12:15,50,,12.5,1350,,
Engage PSG,steven@coffipad.com,30/12/2016,Redwood,Correspondence,email from kevin and robert,12:05,50,,4.17,850,,
MyBpos,steven@coffipad.com,10/10/2016,insurance,group renewal,declaration,02:15,50,,112.5,850,,
Tec USA,steven@coffipad.com,21/02/2017,Insurance (USA),Telephone,further call with stuart armstrong,12:15,50,,12.5,1350,,
L A Recruitment,steven@coffipad.com,13/01/2017,Insurance Claim,Telephone,Telephone call with Bobby Boag and discussing content of email to insurer.,12:15,50,,12.5,1350,,
FPS,steven@coffipad.com,13/12/2016,Easy Jet,Correspondence,with easy jet,12:15,50,,12.5,1350,,
MyBpos,steven@coffipad.com,16/02/2017,General,update,update rl,12:10,50,,8.33,1100,,
Tec EMEA,steven@coffipad.com,06/10/2016,insurance,k and r insurance questions,answering,12:15,50,,12.5,1350,,
Tec EMEA,steven@coffipad.com,11/10/2016,insurance,Renewal proposal ,Middle East PL,02:30,50,,125,1600,,
Net Talent,steven@coffipad.com,13/02/2017,ir 35,Review,review IR35 changes pitch,01:00,50,,50,50,,
FPS,steven@coffipad.com,11/01/2017,Falcon Aviation,Contract Review,Review of contract and appendices and providing written comments,02:30,50,,125,1600,,
L A Recruitment,steven@coffipad.com,07/02/2017,Insurance claim,Telephone,robert and john re email and discussing way fwd,12:15,50,,12.5,1350,,
L A Recruitment,steven@coffipad.com,07/02/2017,Insurance claim,Correspondence,assorted email correspondence ,12:20,50,,16.67,1600,,
L A Recruitment,steven@coffipad.com,12/12/2016,Insurance,Correspondence,various,12:10,50,,8.33,1100,,
L A Recruitment,steven@coffipad.com,21/12/2016,Insurance,Correspondence,assorted corres and calls re the stat demand,01:00,50,,50,50,,
Net Talent,steven@coffipad.com,07/02/2017,Wonderworld,Correspondence,update rl,12:15,50,,12.5,1350,,
Coffipad,steven@coffipad.com,05/10/2016,Media Project,correspondence,emails with craig,12:15,75,,18.75,2025,,
L A Recruitment,steven@coffipad.com,07/02/2017,Insurance claim,Telephone,Bobby boag re issues in email from das,12:10,50,,8.33,1100,,
Tec EMEA,steven@coffipad.com,06/12/2016,Insurance,Telephone/Review,Review of insurance docs and discussion with Peter Bellwood.  Discussing anomolies with Qatar and proceeding with Dubai,02:30,50,,125,1600,,
Coffipad,steven@coffipad.com,05/10/2016,Media Project,correspondence,dealing with craigs battle,01:45,75,,131.25,3450,,
MyBpos,steven@coffipad.com,06/10/2016,General,update,update rl,12:10,50,,8.33,1100,,
Coffipad,steven@coffipad.com,10/10/2016,Media Project,general,dealing with ipads set up and buying,04:00,75,,300,300,,
Tec EMEA,steven@coffipad.com,09/10/2016,review,review qp contract,review,02:30,50,,125,1600,,
Tec EMEA,steven@coffipad.com,09/02/2017,Insurance (MIddle East),Telephone,Bellwood Prestbury re subjectives on policy,12:15,50,,12.5,1350,,
Tec uk,steven@coffipad.com,27/02/2017,grifols,Contract Review,rev of terms,12:45,50,,37.5,2850,,
Coffipad,steven@coffipad.com,05/10/2016,Media Project,correspondence,adjudicating on disagreement with craig and zaque,03:00,75,,225,225,,
Net Talent,steven@coffipad.com,13/12/2016,new contract,checking,checking terms,01:00,50,,50,50,,
L A Recruitment,steven@coffipad.com,05/12/2016,insurance,Telephone,Bobby Boag re progress,12:45,50,,37.5,2850,,
Engage PSG,steven@coffipad.com,06/02/2017,Insurance,Correspondence,adding new location to insurance,12:10,50,,8.33,1100,,
L A Recruitment,steven@coffipad.com,22/02/2017,Insurance claim,call and emails ,with robert, lianne mitson and bobby boag,12:45,50,,37.5,2850,,
L A Recruitment,steven@coffipad.com,16/02/2017,qatar gas,Contract Review,review of contract terms,01:30,50,,75,1550,,
Engage PSG,steven@coffipad.com,17/02/2017,Redwood,Correspondence,updates with robert and kevin,12:15,50,,12.5,1350,,
Tec uk,steven@coffipad.com,28/02/2017,IPS,Correspondence,review and advise,12:30,50,,25,2100,,
Tec uk,steven@coffipad.com,21/02/2017,german client,review,matters arising from terms,12:15,50,,12.5,1350,,
FPS,steven@coffipad.com,05/12/2016,AAL Aviation,Contract  Review,Contract review and providing comments,02:00,50,,100,100,,
FPS,steven@coffipad.com,22/02/2017,mott macdonald,Contract Review,review and report on terms,02:30,50,,125,1600,,
Coffipad,steven@coffipad.com,06/10/2016,Media Project,telephone scott,discussion re advertising opps per craigs instruction,12:30,75,,37.5,3150,,
L A Recruitment,steven@coffipad.com,23/12/2016,Insurance,drafting and correspondence,email to underwriters,12:30,50,,25,2100,,
FPSG,steven@coffipad.com,27/02/2017,candidate ownership,Correspondence,including tomorrows time,01:00,50,,50,50,,
L A Recruitment,steven@coffipad.com,20/12/2016,Insurance,Meeting ,bobby boag and review of terms of legal expenses cover policy,02:30,50,,125,1600,,
L A Recruitment,steven@coffipad.com,09/01/2017,Insurance Claim,Meeting,Meeting John and Robert,02:00,50,,100,100,,
Net Talent,steven@coffipad.com,01/12/2016,oakcrew,Review and Telephone,review papers and speak to yvonne,01:00,50,,50,50,,
Coffipad,steven@coffipad.com,10/01/2017,Media Project,Meeting and Travel,At Alans House,07:00,50,,350,350,,
Net Talent,steven@coffipad.com,14/12/2016,Wonderworld,Correspondence,various,12:15,50,,12.5,1350,,
Engage PSG,steven@coffipad.com,10/10/2016,Redwood,Telephone,kevin,12:10,50,,8.33,1100,,
L A Recruitment,steven@coffipad.com,27/02/2017,Insurance claim,Telephone,bboag arranging a chaser to hiscox,12:10,50,,8.33,1100,,
Coffipad,steven@coffipad.com,06/10/2016,Media Project,correspondence on employment re hours,discussion re hours,12:20,75,,25,2400,,
L A Recruitment,steven@coffipad.com,21/02/2017,Insurance claim,Telephone,bobby boag re pushing criminal matter,12:20,50,,16.67,1600,,
Tec EMEA,steven@coffipad.com,03/02/2017,Tec USA,Insurance,Dealing with Insurance mandate  for USA,12:30,50,,25,2100,,
FPSG,steven@coffipad.com,23/02/2017,candidate ownership,review,review of corres, discussions and emails re situation at hand,12:45,50,,37.5,2850,,
MyBpos,steven@coffipad.com,21/02/2017,General,Correspondence,Catch up with Robert,12:10,50,,8.33,1100,,
Coffipad,steven@coffipad.com,05/10/2016,Media Project,correspondence,email with callum re mark colingbourne,12:20,75,,25,2400,,
Tec uk,steven@coffipad.com,27/02/2017,grifols,Contract Review,rev of terms,12:45,50,,37.5,2850,,
L A Recruitment,steven@coffipad.com,23/12/2016,Insurance,Telephone,john hailstone,12:15,50,,12.5,1350,,
Net Talent,steven@coffipad.com,01/12/2016,Oakcrew,Review,Review of documents sent by Yvonne,12:30,50,,25,2100,,
L A Recruitment,steven@coffipad.com,23/02/2017,Insurance claim,Correspondence,with das, hiscox, rl and bb re warrant and progress of case (time in total),01:00,50,,50,50,,
Net Talent,steven@coffipad.com,16/12/2016,Wonderworld,Correspondence,assorted,12:15,50,,12.5,1350,,
L A Recruitment,steven@coffipad.com,23/12/2016,Insurance,Telephone,bobby boag,12:21,50,,17.5,1650,,
Coffipad,steven@coffipad.com,06/10/2016,correspondence ,Responding to DD queries from investors,raised by CRaig,12:30,75,,37.5,3150,,
FPS,steven@coffipad.com,10/02/2017,BBC incident,assorted correspondence,re the allegations and reporter comments,01:15,50,,62.5,800,,
Net Talent,steven@coffipad.com,21/12/2016,ian galloway,correspondence and review,menzies contract,12:15,50,,12.5,1350,,
FPS,steven@coffipad.com,06/02/2017,Contract review,Agile 1,Review of Agile contract with a view to remova ofTSL as MSP,03:15,50,,162.5,900,,
L A Recruitment,steven@coffipad.com,07/02/2017,Insurance claim,Review,email from das,12:15,50,,12.5,1350,,
L A Recruitment,steven@coffipad.com,02/02/2017,Aberdeen Lease,Various discussions and review,Various discussions and review of lease terms in particular  the FRI covenants discussing same with Michelle Deady,03:15,50,,162.5,900,,
Net Talent,steven@coffipad.com,01/12/2016,Oakcrew,Telephone,Telephone with Yvonne,12:10,50,,8.33,1100,,
L A Recruitment,steven@coffipad.com,22/12/2016,Insurance,Correspondence,various emails,12:15,50,,12.5,1350,,
Tec USA,steven@coffipad.com,21/02/2017,Insurance (USA),Telephone,stuart armstrong,12:20,50,,16.67,1600,,
Coffipad,steven@coffipad.com,30/03/2016,Media Project,email,Email craig re Edinburgh Salon requiring ipads,12:05,75,,3.75,1275,,
Tec USA,steven@coffipad.com,05/04/2016,kbc,Drafting,Update to contracts following comments from client,01:00,50,,50,50,,
Coffipad,steven@coffipad.com,01/03/2016,Media Project,Correspondence,Re ipad cover design,12:05,75,,3.75,1275,,
MyBpos,steven@coffipad.com,26/04/2016,General,Meeting,Meet John Hailstone,01:00,50,,50,50,,
Tec uk,steven@coffipad.com,25/04/2016,General,Drafting,And other correspondence with Immogen regading indemnity clauses,12:30,50,,25,2100,,
Tec uk,steven@coffipad.com,26/04/2016,Contract Review,Review,Sapiem Contract,12:15,50,,12.5,1350,,
L A Recruitment,steven@coffipad.com,26/04/2016,Contract Review,Review,Rasgas Contract,03:00,50,,150,150,,
Coffipad,steven@coffipad.com,29/03/2016,Media Project,meeting,Fraser from Radiator Media,12:15,75,,11.25,2025,,
Tec EMEA,steven@coffipad.com,04/04/2016,DED Docs,Correspondence,Chaser re DED docs,12:20,50,,16.67,1600,,
Coffipad,steven@coffipad.com,18/04/2016,Media Project,Telepohone,Catch up with Craig,01:30,75,,112.5,2325,,
Tec USA,steven@coffipad.com,12/04/2016,General,te with Adam,re insurance cover,12:15,50,,12.5,1350,,
Coffipad,steven@coffipad.com,04/05/2016,Media Project,Telephone,TC Craig Douglas,12:20,75,,25,2400,,
MyBpos,steven@coffipad.com,05/04/2016,General,Telephone,Discussion with Kim re sick pay,12:10,50,,8.33,1100,,
Coffipad,steven@coffipad.com,30/03/2016,Media Project,meeting,Meeting CD,02:00,75,,150,150,,
FPS,steven@coffipad.com,06/07/2016,Contract Review,Review,Amgem Contract,02:00,50,,100,100,,
Coffipad,steven@coffipad.com,27/04/2016,Media Project,meetings,Meeting prospective clints,03:00,75,,225,225,,
Coffipad,steven@coffipad.com,09/04/2016,Media Project,Meeting,Matt Loclkwood,12:15,75,,18.75,2025,,
Tec uk,steven@coffipad.com,14/04/2016,General,Telepohone,TC Will Aitkinson,12:10,50,,8.33,1100,,
Tec EMEA,steven@coffipad.com,31/03/2016,Taqa Iraq,Telephone,Telephone attendance with John Hailstone,12:15,50,,7.5,1350,,
Coffipad,steven@coffipad.com,01/08/2016,various,Meteting and phone calls,Meeting and phonecalls,05:00,75,,375,375,,
FPS,steven@coffipad.com,18/07/2016,Chromalloy,drafting and correspondence,Crime and fidelity Cover,12:15,50,,12.5,1350,,
FPS,steven@coffipad.com,11/08/2016,Msa,Correspondence ,Email J Scott,12:10,50,,8.33,1100,,
MyBpos,steven@coffipad.com,26/07/2016,Insurance,Review,Endorsemen t and increased premium for C&F,12:15,50,,12.5,1350,,
Tec EMEA,steven@coffipad.com,05/07/2016,Business Travel Insurance,Correspondence,Email from Naveed re various requirements - Considering same and review against exisitng available cover,12:30,50,,25,2100,,
Tec uk,steven@coffipad.com,01/09/2016,Insurance,Correspondence,Further correspondence on Nigerian Contractor,12:10,50,,8.33,1100,,
Coffipad,steven@coffipad.com,16/05/2016,Media Project,Meeting,Ather re Logi,12:10,75,,12.5,1650,,
L A Recruitment,steven@coffipad.com,15/08/2016,Health Insurance,Correspondence,Assorted catching up re Slavek,12:30,50,,25,2100,,
Coffipad,steven@coffipad.com,25/08/2016,Media Project,Telephone,Craig,01:00,75,,75,75,,
Net Talent,steven@coffipad.com,06/07/2016,Delbag,Review and Drafting,Review of Correspondence,12:15,50,,12.5,1350,,
Coffipad,steven@coffipad.com,02/09/2016,Media Project,Admin,Business Cards,12:05,75,,6.25,1275,,
Net Talent,steven@coffipad.com,04/07/2016,Drafting,Documents,Drafting settlement agreement re wonderworld,01:00,50,,50,50,,
L A Recruitment,steven@coffipad.com,06/06/2016,Memo and Articles,Review,Review of documents sent by  Will,01:30,50,,75,1550,,
Tec EMEA,steven@coffipad.com,28/11/2016,Insurance,TC,Peter Bellwood,12:15,50,,12.5,1350,,
MyBpos,steven@coffipad.com,19/04/2016,General,Telepohone,Catch up with Robert,12:10,50,,8.33,1100,,
Coffipad,steven@coffipad.com,25/04/2016,Media Project,marketing,mailing,09:00,75,,675,675,,
Engage PSG,steven@coffipad.com,25/07/2016,Redwood,correspondence,update,12:10,50,,8.33,1100,,
Coffipad,steven@coffipad.com,13/09/2016,Media Project,Correspondence,Disucssion with CD re ads local v aggregator, amongst  other things,12:45,75,,56.25,4275,,
FPS,steven@coffipad.com,26/04/2016,Ryanair,Spanish Declaration,review,12:15,50,,12.5,1350,,
Engage PSG,steven@coffipad.com,08/08/2016,Redwood,corres,update and final letter to redwood,12:30,50,,25,2100,,
Coffipad,steven@coffipad.com,05/05/2016,Media Project,Telephone,TC Craig Douglas,12:50,75,,62.5,4650,,
FPS,steven@coffipad.com,06/06/2016,Contract Review,Review,Contract with Tecan Trading,01:00,50,,50,50,,
Net Talent,steven@coffipad.com,05/07/2016,Contract Review,Cigma Contract,Review Contract,01:30,50,,75,1550,,
L A Recruitment,steven@coffipad.com,17/11/2016,insurance,Correspondence,Invoice re BP,12:05,50,,4.17,850,,
Net Talent,steven@coffipad.com,21/11/2016,Cigma,Correspondence,Cyber policy,06:00,50,,300,300,,
FPS,steven@coffipad.com,23/09/2016,Contract review,review,Pivot agreement,02:00,50,,100,100,,
MyBpos,steven@coffipad.com,20/04/2016,General,Review email and position re Clyde Corrosion,Revert to Robert discuss on phone and provide wording,12:15,50,,12.5,1350,,
FPS,steven@coffipad.com,15/07/2016,Chromalloy,Review and Drafting,Proposed further amendments to the contract,12:15,50,,12.5,1350,,
MyBpos,steven@coffipad.com,09/09/2016,General,Telephone,call robert,12:10,50,,8.33,1100,,
Coffipad,steven@coffipad.com,31/03/2016,Media Project,Telephone,Call with CD,12:20,75,,15,2400,,
MyBpos,steven@coffipad.com,29/03/2016,General,Telephone,Robert re Dell Contract and Auto Enrolement Pensions,12:10,50,,5,1100,,
Coffipad,steven@coffipad.com,09/11/2016,Media Project,Telephone,Telephone call with Deutchbank (Ireland),01:00,75,,75,75,,
Tec uk,steven@coffipad.com,01/04/2016,Venn LIfe Sciences,Contract Review,Review of Contract terms,01:30,50,,75,1550,,
MyBpos,steven@coffipad.com,04/07/2016,General,Telephone,Catch up with Robert,12:15,50,,12.5,1350,,
Coffipad,steven@coffipad.com,09/09/2016,Media Project,Correspondence,Discussion with CD re leasing model,12:15,75,,18.75,2025,,
FPS,steven@coffipad.com,01/08/2016,Prestwick MSA,Review,Review of existing documentation and telephone with Tracey,01:30,50,,75,1550,,
FPS,steven@coffipad.com,08/11/2016,Easy Jet,Disucssion and ,review of terms,12:35,50,,29.17,2350,,
MyBpos,steven@coffipad.com,15/04/2016,Contract Review,Review,Review of Dell Contract Proposa viz the Dell Contract,01:30,50,,75,1550,,
Tec EMEA,steven@coffipad.com,22/07/2016,Telephone,Telephone,Peter Bellwood,12:15,50,,12.5,1350,,
Tec EMEA,steven@coffipad.com,06/11/2016,Qatar Petroleum,Contract Review,Review terms,02:30,50,,125,1600,,
Coffipad,steven@coffipad.com,19/09/2016,Media Project,Drafting,new terms follwoing academy discussions,01:30,75,,112.5,2325,,
Coffipad,steven@coffipad.com,18/03/2016,Media Project,Meeting,Meeting Andrfew Sibley etc,08:00,75,,600,600,,
Net Talent,steven@coffipad.com,03/08/2016,Wonderworld,Correspondence,Update Yvonne,12:10,50,,8.33,1100,,
FPSG,steven@coffipad.com,02/08/2016,Williams and Glynn,Telephone,TC with Andrew Spratt (2 calls),12:15,50,,12.5,1350,,
Net Talent,steven@coffipad.com,11/08/2016,Cigma Tender,correspondence,Clarifications on Cyber Liability Cover,12:05,50,,4.17,850,,
Coffipad,steven@coffipad.com,12/09/2016,Media Project,admin,Dealing with Apple deployment account,12:15,75,,18.75,2025,,
FPS,steven@coffipad.com,16/11/2016,Contract review,Review,Confidentiality Agreement,12:35,50,,29.17,2350,,
FPS,steven@coffipad.com,03/08/2016,CIS ,Meeting,Meet John Reid to discuss,03:30,50,,175,1650,,
FPS,steven@coffipad.com,13/07/2016,Spirit Aviation,correspondence,with Tracey,12:20,50,,16.67,1600,,
Coffipad,steven@coffipad.com,29/03/2016,Media Project,Meeting,Meerting with Zaque,01:30,75,,97.5,2325,,
FPS,steven@coffipad.com,18/10/2016,Contract review,Review of easyjet terms,Easyjet,01:30,50,,75,1550,,
Tec EMEA,steven@coffipad.com,11/07/2016,Insurance,Correspondence,Emails re optical and dental benefits,12:15,50,,12.5,1350,,
Coffipad,steven@coffipad.com,18/03/2016,Media Project,Telephone,Telephone call with Craig,12:30,75,,22.5,3150,,
L A Recruitment,steven@coffipad.com,01/11/2016,Insurance,Meeting,Followup with Towergate and offering to meet Hiscox,01:00,50,,50,50,,
Tec EMEA,steven@coffipad.com,05/07/2016,Business Travel Insurance,Correspondence,Assorted emails re business travel insurance,01:00,50,,50,50,,
FPS,steven@coffipad.com,10/08/2016,Msa,Correspondence,email J Scott,12:10,50,,8.33,1100,,
Coffipad,steven@coffipad.com,23/09/2016,Media Project,correspondence,with Michaela,12:15,75,,18.75,2025,,
Tec EMEA,steven@coffipad.com,17/11/2016,Middle East General,Correspondence,Re middle east staff,12:15,50,,12.5,1350,,
Tec uk,steven@coffipad.com,19/07/2016,General,Telephone,Will Atkinson,12:15,50,,12.5,1350,,
L A Recruitment,steven@coffipad.com,02/05/2017,Insurance claim,Correspondence,email lianne mitson,12:15,50,,12.5,1350,,
FPS,steven@coffipad.com,15/07/2016,Spirit Aviation,Telephone,tracey,12:15,50,,12.5,1350,,
Coffipad,steven@coffipad.com,28/03/2016,Media Project,Telephone,Telephone call with Craig,01:45,75,,108.75,3450,,
MyBpos,steven@coffipad.com,05/04/2016,General,Telephone,Update Call with Robert Little,12:10,50,,8.33,1100,,
Net Talent,steven@coffipad.com,22/11/2016,Cigma,Various,Obtaiuning quotes ,06:00,50,,300,300,,
L A Recruitment,steven@coffipad.com,02/11/2016,NOw HEalth,Correspondence,Assorted  4 emails and 2 calss with RL 2 calls with PB and 2 calls with CQ,01:30,50,,75,1550,,
Tec USA,steven@coffipad.com,11/10/2016,Insurance (USA),Meeting,discussing taking over cover,01:00,50,,50,50,,
Net Talent,steven@coffipad.com,30/03/2016,Wonderworld,Correspondence,Email to Yvonne,12:05,50,,2.5,850,,
Coffipad,steven@coffipad.com,01/04/2016,Media Project,Telephone,Telephone Craig,01:15,50,,62.5,800,,
Coffipad,steven@coffipad.com,01/09/2016,Media Project,Correspondence,Discussion with Echo sign (Adobe),12:15,75,,18.75,2025,,
Coffipad,steven@coffipad.com,04/09/2016,Media Project,Meeting,Meeting Zaque re IOS issues,12:45,75,,56.25,4275,,
Tec EMEA,steven@coffipad.com,10/07/2016,Business Travel Insurance,Correspondence,Email Naveed,12:05,50,,4.17,850,,
L A Recruitment,steven@coffipad.com,03/05/2017,Insurance claim,Correspondence,email from JH, discussion with RL and calling Towergate to discuss,12:15,50,,12.5,1350,,
Coffipad,steven@coffipad.com,20/09/2016,Media Project,Telephone,TC CD,12:50,75,,62.5,4650,,
Net Talent,steven@coffipad.com,16/08/2016,Wonderworld,Meeting,D Ramsay,01:00,50,,50,50,,
FPS,steven@coffipad.com,14/07/2016,Chromalloy,Contract Review,Review Contract,02:30,50,,125,1600,,
MyBpos,steven@coffipad.com,01/11/2016,Insurance,Review,Receipt of policy checking and sending,01:00,50,,50,50,,
L A Recruitment,steven@coffipad.com,01/03/2017,Insurance claim,review,correspondence from DAS and discuss by phone with Bobby Boag,12:15,50,,12.5,1350,,
Tec EMEA,steven@coffipad.com,20/04/2016,General,Telephone,Adam Jackson re personal possessions insurance,12:10,50,,8.33,1100,,
MyBpos,steven@coffipad.com,22/08/2016,General,correspondence,Outstanding Bill for Towergate,12:05,50,,4.17,850,,
Tec EMEA,steven@coffipad.com,12/08/2016,NOw HEalth,correspondence,Email from Naveed,12:05,50,,4.17,850,,
Net Talent,steven@coffipad.com,18/11/2016,Cigma,Telephone,RL,12:10,50,,8.33,1100,,
Tec USA,steven@coffipad.com,20/03/2017,Insurance (USA),Correspondence,with Kingsbridge,12:10,50,,8.33,1100,,
Coffipad,steven@coffipad.com,26/08/2016,Media Project,Telephone,Alan Jones,12:20,75,,25,2400,,
L A Recruitment,steven@coffipad.com,11/03/2016,Insurance,Telephone,Telephone John Hailstone,12:15,50,,7.5,1350,,
Tec uk,steven@coffipad.com,01/03/2016,Contract Review,MOLGroup Contract,Review of contract,01:30,50,,65,1550,,
Tec EMEA,steven@coffipad.com,01/03/2016,KRG Contract,Correspondence ,Correspondence with Naveed in support of Bid,12:15,50,,7.5,1350,,
FPS,steven@coffipad.com,19/10/2016,Contract review,Discussions with insurer re,Easyjet contract,12:15,50,,12.5,1350,,
L A Recruitment,steven@coffipad.com,14/03/2016,Board Minute,Drafting,Drafting Board Minute re co-operation,01:00,50,,50,50,,
Coffipad,steven@coffipad.com,05/09/2016,Media Project,Telephone,TELEPHONE cd re tech issues,12:25,75,,31.25,2775,,
Net Talent,steven@coffipad.com,11/10/2016,Wonderworld,Drafting,Notice re holding of funds,01:00,50,,50,50,,
Net Talent,steven@coffipad.com,16/08/2016,Contract Review,review,Review of Lead forensics terms,12:15,50,,12.5,1350,,
Tec USA,steven@coffipad.com,16/03/2017,Insurance (USA),Telephone,Sam and Stuart at Kingsbridge,12:30,50,,25,2100,,
Tec USA,steven@coffipad.com,21/04/2016,KBC,Drafting,Contractor Contract amendments,01:10,50,,58.33,550,,
Tec USA,steven@coffipad.com,05/04/2016,KBC,Drafting,Further amendments and correspondence to Contracts following client correspondence,12:30,50,,25,2100,,
Tec EMEA,steven@coffipad.com,16/05/2016,Insurance,Telephone,Telephone Naveed, discussing medical insurance cover and email to Peter Belwood,12:15,50,,12.5,1350,,
FPS,steven@coffipad.com,21/07/2016,Chromalloy,correspondence,C&F Cover,12:10,50,,8.33,1100,,
FPS,steven@coffipad.com,07/07/2016,General,Correspondence,Germany,12:05,50,,4.17,850,,
MyBpos,steven@coffipad.com,03/03/2017,General,Telephone,With Robert,12:10,50,,8.33,1100,,
Coffipad,steven@coffipad.com,11/03/2016,Media Project,Meeting,Fraser from Radiator Media,01:30,75,,97.5,2325,,
L A Recruitment,steven@coffipad.com,02/05/2017,Insurance claim,Correspondence,Assorted follow ups by phone with Das and Lianne Mitsons,12:50,50,,41.67,3100,,
FPS,steven@coffipad.com,24/10/2016,Contract review,further amendments to ,Easy jet contract,01:00,50,,50,50,,
Coffipad,steven@coffipad.com,11/04/2016,Media Project,Meeting,Alan and Lesley in office,05:00,75,,375,375,,
Net Talent,steven@coffipad.com,14/03/2017,Wonderworld,correspondence,update rl,12:05,50,,4.17,850,,
MyBpos,steven@coffipad.com,26/04/2017,Health Insurance,Review,Bupa Terms,01:00,50,,50,50,,
MyBpos,steven@coffipad.com,26/04/2017,bupa terms,discussion  and review,Belwood Prestbury,01:00,50,,50,50,,
L A Recruitment,steven@coffipad.com,29/04/2016,Rasgas Tender,Telephone,TC with Robert Little,12:15,50,,12.5,1350,,
Coffipad,steven@coffipad.com,07/09/2016,Media Project,Correspondence,assorted discussions re lock down,12:20,75,,25,2400,,
Engage PSG,steven@coffipad.com,14/03/2017,Redwood,Telephone,kevin Cruikshank,12:05,50,,4.17,850,,
Coffipad,steven@coffipad.com,13/09/2016,Media Project,Conference Call,Michaela Academy,12:30,75,,37.5,3150,,
Coffipad,steven@coffipad.com,12/09/2016,Media Project,Correspondence,Telephone with Kevin,12:10,75,,12.5,1650,,
MyBpos,steven@coffipad.com,30/03/2016,Contracts,email,Email Robert re updating contracts,12:05,75,,3.75,1275,,
Tec EMEA,steven@coffipad.com,08/11/2016,Workers Comp,Telephone,Middle east policy,12:10,50,,8.33,1100,,
Coffipad,steven@coffipad.com,01/03/2016,Media Project,Correspondence,email craig,12:05,75,,3.75,1275,,
MyBpos,steven@coffipad.com,11/10/2016,insurance,Meeting,Kingsbridge,01:30,50,,75,1550,,
Coffipad,steven@coffipad.com,05/03/2016,Media Project,Correspondence ,emails re a sibley,12:05,75,,3.75,1275,,
Coffipad,steven@coffipad.com,16/05/2016,Media Project,Telephone,TC CD,12:10,75,,12.5,1650,,
MyBpos,steven@coffipad.com,25/10/2016,insurance,PROCURING COVER NOTE,phone,12:10,50,,8.33,1100,,
L A Recruitment,steven@coffipad.com,06/09/2016,Insurance,Correspondence,various chasing claim,01:00,50,,50,50,,
Tec uk,steven@coffipad.com,01/03/2016,Contract Review,Amending Contract,Amendments to Kathleen Peters Contract,12:10,50,,5,1100,,
FPS,steven@coffipad.com,15/05/2017,McCarthy and Stone,Contract Review,Review and reporting to Tracey /Chris Boyd,02:00,50,,100,100,,
Coffipad,steven@coffipad.com,01/04/2016,Media Project,Various,Various correspondence,03:00,75,,225,225,,
Coffipad,steven@coffipad.com,29/03/2016,Media Project,Drafting,Various updates to Basecamp,12:15,75,,11.25,2025,,
MyBpos,steven@coffipad.com,26/04/2016,General,Meeting,Robert Little,01:00,50,,50,50,,
Tec EMEA,steven@coffipad.com,26/09/2016,insurance,review,Workers comp renewal,01:30,75,,112.5,2325,,
L A Recruitment,steven@coffipad.com,18/11/2016,Insurance,Telephone,RL re LA Claim,12:10,50,,8.33,1100,,
FPS,steven@coffipad.com,04/03/2016,New Legislation,Correspondence ,KARLY,12:05,50,,2.5,850,,
L A Recruitment,steven@coffipad.com,16/03/2016,Insurance,review,Working on claim and liaising with insurer,01:31,50,,65.5,1600,,
FPS,steven@coffipad.com,06/04/2016,General,Correspondence,Correspondence re Vaultdawn,12:15,50,,12.5,1350,,
Net Talent,steven@coffipad.com,15/11/2016,Menzies,Drafting,review of amendments and provifing narrative,01:00,50,,50,50,,
MyBpos,steven@coffipad.com,04/08/2016,Rent Deposits,Telephone ,Telephone with Simon Knox re rental deposits,12:10,50,,8.33,1100,,
L A Recruitment,steven@coffipad.com,29/02/2016,UAE TAx Authorities,Meeting,Meet with Bobby Boag,01:30,50,,65,1550,,
Coffipad,steven@coffipad.com,25/03/2016,Media Project,Telephone,Telephone call with Craig,01:55,75,,116.25,4200,,
Coffipad,steven@coffipad.com,31/03/2016,Media Project,Correspondence,Discussion with Zaque re the advert space we can offer to advertisers,12:10,75,,7.5,1650,,
MyBpos,steven@coffipad.com,20/09/2016,Insurance,Renwal,Meeting,02:00,50,,100,100,,
Tec uk,steven@coffipad.com,29/03/2016,sapiem,review,Amendment,12:15,50,,7.5,1350,,
Coffipad,steven@coffipad.com,04/05/2016,Media Project,Telephone,TC Craig,12:20,75,,25,2400,,
MyBpos,steven@coffipad.com,05/04/2016,General,Drafting,Update to report and email,12:05,50,,2.5,850,,
Coffipad,steven@coffipad.com,22/09/2016,Media Project,various,dealing with the lock down of the mac and unlocking Candy ipad,06:30,75,,487.5,2700,,
Coffipad,steven@coffipad.com,08/03/2016,Media Project,correspondence,email,12:05,75,,3.75,1275,,
FPSG,steven@coffipad.com,02/08/2016,Williams and Glynn,Contract Review,Review of contract ,01:30,50,,75,1550,,
Engage PSG,steven@coffipad.com,11/04/2016,General,Correspondence,Kevin re Redwood,12:10,50,,8.33,1100,,
Tec EMEA,steven@coffipad.com,19/09/2016,Contract review,Follow Up,Follow up with Becky Re the Oryx Tender,12:15,50,,12.5,1350,,
Tec USA,steven@coffipad.com,23/03/2016,kbc,Drafting,Drafting Candidate Contracts x3,01:30,50,,65,1550,,
Coffipad,steven@coffipad.com,09/09/2016,Media Project,Review,Of assorted correspondence with Mads of Apple,12:15,75,,18.75,2025,,
Coffipad,steven@coffipad.com,01/04/2016,Media Project,Drafting,Andrew Shipley Proposal,12:15,75,,18.75,2025,,
MyBpos,steven@coffipad.com,24/08/2016,Fleet Insurance,Review ,Review of renewal,12:30,50,,25,2100,,
Coffipad,steven@coffipad.com,31/03/2016,Media Project,Telephone,Telephone Craig,12:47,75,,35.25,4425,,
L A Recruitment,steven@coffipad.com,18/04/2017,Insurance claim,correspondence,Discussion on rates with B Boag,12:10,50,,8.33,1100,,
Coffipad,steven@coffipad.com,09/03/2016,Media Project,Meeting,Board Meeting in Edinburgh,06:30,75,,472.5,2700,,
Tec EMEA,steven@coffipad.com,30/03/2016,General,Review,new Now Health Policy,12:10,50,,5,1100,,
Tec EMEA,steven@coffipad.com,14/03/2016,Taqa Iraq,Review,Review Contract,01:00,50,,50,50,,
Tec uk,steven@coffipad.com,01/03/2016,Contract Review,review,Molgroup,02:00,50,,100,100,,
Coffipad,steven@coffipad.com,25/08/2016,Media Project,Meeting,Meeting Ather with CD,12:40,75,,50,3900,,
FPS,steven@coffipad.com,14/07/2016,Chromalloy,Review and Drafting,Insurance provisions and table,01:00,50,,50,50,,
FPS,steven@coffipad.com,25/04/2017,Ethos Energy,Review,of comments from Ethos,12:30,50,,25,2100,,
Coffipad,steven@coffipad.com,05/09/2016,Media Project,Telephone,Further call with CD re techs performance and appealing to Zaque,12:15,75,,18.75,2025,,
L A Recruitment,steven@coffipad.com,16/03/2017,Insurance claim,Correspondence,assorted,12:15,50,,12.5,1350,,
Coffipad,steven@coffipad.com,13/09/2016,media,Telephone,TC CD,12:40,75,,50,3900,,
L A Recruitment,steven@coffipad.com,19/07/2016,Burness,correspondence,email John H,12:05,50,,4.17,850,,
Tec EMEA,steven@coffipad.com,11/10/2016,insurance,correspondence,Info request  from BP,12:10,50,,8.33,1100,,
FPSG,steven@coffipad.com,19/10/2016,General,Email andrew and ray,re candidate ownership,12:40,50,,33.33,2600,,
L A Recruitment,steven@coffipad.com,04/05/2017,Insurance claim,Correspondence,Email from Robert and response phonecall to Towergate,12:15,50,,12.5,1350,,
MyBpos,steven@coffipad.com,09/09/2016,Scottish Power,Tel,Simon Knox,12:05,50,,4.17,850,,
FPS,steven@coffipad.com,25/04/2017,General,meeting,john reid re compliance ,12:30,50,,25,2100,,
Tec EMEA,steven@coffipad.com,07/09/2016,Contract Review,Review ,Oryx tender,03:30,50,,175,1650,,
Coffipad,steven@coffipad.com,07/09/2016,Media Project,Admin,Preparation of 50 copies of presenatation,12:10,75,,12.5,1650,,
FPS,steven@coffipad.com,01/03/2016,Contract Review,Review,Anderson Group Contracts,01:00,50,,50,50,,
FPS,steven@coffipad.com,27/04/2016,Contract Review,Friokheim WWTW,Review Contract,01:30,50,,75,1550,,
MyBpos,steven@coffipad.com,24/04/2017,General,meeting,Robert Little,01:30,50,,75,1550,,
MyBpos,steven@coffipad.com,05/09/2016,Insurance,Correspondence,Cover note re fleet,12:05,50,,4.17,850,,
Net Talent,steven@coffipad.com,15/08/2016,Wonderworld,Correspondence,update,12:10,50,,8.33,1100,,
FPS,steven@coffipad.com,27/04/2016,Jacobs Ireland,Telepohone,TC discussion with Tracey,12:15,50,,12.5,1350,,
Tec EMEA,steven@coffipad.com,13/10/2016,Tender Query,Discussion,Maersk query,12:15,50,,12.5,1350,,
Tec EMEA,steven@coffipad.com,14/10/2016,Insurance (MIddle East),Review ,Renewal terms for K&R policy,12:30,50,,25,2100,,
FPS,steven@coffipad.com,03/05/2017,AAL,Contract Review,Review and report thereon,01:30,50,,75,1550,,
FPS,steven@coffipad.com,08/03/2016,New Legislation,Correspondence,email and call with Karly and Caentralus,12:10,50,,5,1100,,
Coffipad,steven@coffipad.com,16/05/2016,Media Project,Telephone,Telephone Craig,12:10,75,,12.5,1650,,
Tec USA,steven@coffipad.com,04/04/2016,KBC,Drafting,Amendment to contract,12:15,50,,7.5,1350,,
Tec USA,steven@coffipad.com,30/03/2016,Contracts,Telephone,Telephone Adam re contracts,12:05,50,,2.5,850,,
L A Recruitment,steven@coffipad.com,03/05/2017,Insurance claim,Correspondence,with Burness,12:09,50,,7.5,1050,,
FPSG,steven@coffipad.com,20/09/2016,scotsman,correspondence,with the court,12:15,50,,12.5,1350,,
FPS,steven@coffipad.com,14/09/2016,Centralaus,correspondence,John Reid,12:05,50,,4.17,850,,
Tec USA,steven@coffipad.com,26/04/2016,General,Telephone,Adam Jackson,12:10,50,,8.33,1100,,
L A Recruitment,steven@coffipad.com,20/03/2017,Insurance claim,Telephone,Gary moffat at burness,12:15,50,,12.5,1350,,
L A Recruitment,steven@coffipad.com,27/04/2017,Insurance claim,Telephone,Bobby Boag,12:15,50,,12.5,1350,,
Tec uk,steven@coffipad.com,11/04/2016,General,Telephone,Call Stuart Gill,12:05,50,,4.17,850,,
FPSG,steven@coffipad.com,04/11/2016,Trinity Mirror,Telephone,Follow up,12:15,50,,12.5,1350,,
FPS,steven@coffipad.com,03/05/2017,Laing O'Rourke,Contract Review,Review and reporting on contract,02:30,50,,125,1600,,
Tec USA,steven@coffipad.com,07/03/2016,various,Telephone,john hailstone,12:15,50,,7.5,1350,,
Tec USA,steven@coffipad.com,11/04/2016,Contract Review,Correspondence,Adam re Syngenta Contract,12:15,50,,12.5,1350,,
Tec USA,steven@coffipad.com,21/04/2017,USA Insurance,various correspondence,Kingsbridge,12:45,50,,37.5,2850,,
Tec USA,steven@coffipad.com,21/03/2016,kbc,correspondence,Correspondence with Adam,12:10,50,,5,1100,,
Net Talent,steven@coffipad.com,25/07/2016,Wonderworld,Telephone,Discussion with court,12:30,50,,25,2100,,
Coffipad,steven@coffipad.com,14/05/2016,Media Project,correspondence,Correspondence and consideration re McConacheys,01:00,75,,75,75,,
L A Recruitment,steven@coffipad.com,03/03/2017,Insurance claim,Correspondence,towergate,12:10,50,,8.33,1100,,
Engage PSG,steven@coffipad.com,22/04/2016,Redwood,Telephone,Kevin Cruickshank,12:10,50,,8.33,1100,,
Tec USA,steven@coffipad.com,22/04/2016,Insurance,Telephone,Telephone Suzanne Ryan,12:15,50,,12.5,1350,,
Net Talent,steven@coffipad.com,05/07/2016,Wonderworld,Correspondence,Email re wonderworld,12:05,50,,4.17,850,,
Coffipad,steven@coffipad.com,09/03/2016,Media Project,Telephone,Telephone call with Craig,01:00,75,,75,75,,
Tec USA,steven@coffipad.com,07/03/2016,Insurance,Telephone,JH re James Robinson,12:15,50,,7.5,1350,,
Coffipad,steven@coffipad.com,01/09/2016,Media Project,Review,Review of Strawberry Analytics from Base and assign the sucessful ones to CB,12:25,75,,31.25,2775,,
Coffipad,steven@coffipad.com,13/04/2016,Media Project,Meeting,Meeting Alan and Denise,05:00,75,,375,375,,
Tec EMEA,steven@coffipad.com,07/03/2016,Licence,Correspondence,update naveed and chase embassy,12:15,50,,7.5,1350,,
Tec uk,steven@coffipad.com,26/04/2017,suite 2,recall file etc,4 hours restrict to 1,01:00,50,,50,50,,
FPS,steven@coffipad.com,09/08/2016,Ryanair Side Letter,review,Review of the terms of sideletter,12:15,50,,12.5,1350,,
FPSG,steven@coffipad.com,19/04/2017,Kelly Services,Contract Review,Review of DP wording amendment,12:20,50,,16.67,1600,,
Tec uk,steven@coffipad.com,16/03/2016,Health Insurance,Updates re Health Cover,Various correspondence,12:15,50,,7.5,1350,,
Coffipad,steven@coffipad.com,01/04/2016,Media Project,Telepohone,TC Craig Douglas,01:00,75,,75,75,,
L A Recruitment,steven@coffipad.com,13/05/2016,insur,Review,Of available insurances per request from Naveed,03:00,50,,150,150,,
L A Recruitment,steven@coffipad.com,19/04/2017,Insurance claim,Telephone,Calls x2 with B Boag,12:15,50,,12.5,1350,,
Tec EMEA,steven@coffipad.com,28/09/2016,insurance,Telephone,Tc Peter Bellwood,12:30,50,,25,2100,,
Tec uk,steven@coffipad.com,20/09/2016,Contract review,Advanced Accelerator,review of terms and revert to Stuart,01:00,50,,50,50,,
FPS,steven@coffipad.com,20/04/2016,MacLaughlin  and Harvey,Telephone,Several Calls re pursuing settlement and update to Tracey,12:30,50,,25,2100,,
L A Recruitment,steven@coffipad.com,08/03/2017,Insurance claim,Correspondence,Trying to engage with Issac at Hiscox,12:10,50,,8.33,1100,,
FPS,steven@coffipad.com,27/04/2016,New Legislation,Meeting,Meeting With John Reid,02:00,50,,100,100,,
Coffipad,steven@coffipad.com,26/08/2016,Media Project,Telephone,Tc with Ather,12:20,75,,25,2400,,
Coffipad,steven@coffipad.com,13/05/2016,Media Project,Various,Correspondence with Various parties re name change, meeting with insurance broker, meeting with Craig, Meeting with Zaque and Ather and telephone call with Alan Jones,09:00,75,,675,675,,
L A Recruitment,steven@coffipad.com,28/04/2017,Insurance claim,Telephone,bobby boag,12:25,50,,20.83,1850,,
FPS,steven@coffipad.com,05/04/2016,Contract Review,Review,Sodex/Atkins Contract,01:30,50,,75,1550,,
L A Recruitment,steven@coffipad.com,03/05/2017,Insurance claim,Telephone,discussion with lianne mitson at das,12:10,50,,8.33,1100,,
Tec uk,steven@coffipad.com,03/03/2017,I P solutions,Correspondence,With client and Thomas Higgins,12:30,50,,25,2100,,
Tec EMEA,steven@coffipad.com,22/04/2016,Insurance,INsurance for Saudi,Various calls and emails,02:00,50,,100,100,,
Tec uk,steven@coffipad.com,26/04/2017,suite 2,locating info,4 hours - charge 1,04:00,50,,200,200,,
Coffipad,steven@coffipad.com,21/04/2016,Media Project,drafting,marleting pack,01:30,75,,112.5,2325,,
FPS,steven@coffipad.com,01/11/2016,Contract review,Review of,Clark Contracts Contract,01:30,50,,75,1550,,
Tec USA,steven@coffipad.com,21/03/2016,Contract Review,review,Syngenta Contract,02:00,50,,100,100,,
Tec uk,steven@coffipad.com,13/04/2017,IPS,Correspondence,assorted,01:00,50,,50,50,,
Coffipad,steven@coffipad.com,06/03/2016,Media Project,Correspondence ,various emails,12:05,75,,3.75,1275,,
Coffipad,steven@coffipad.com,30/03/2016,Media Project,meeting,Discussion with Ather,12:05,75,,3.75,1275,,
Tec USA,steven@coffipad.com,05/04/2016,KBC,Telephone,TC Adam Jackson,12:20,50,,16.67,1600,,
FPS,steven@coffipad.com,05/04/2016,Centralaus,Correspondence,With Karly,12:15,50,,12.5,1350,,
Tec EMEA,steven@coffipad.com,15/11/2016,Personal Accident Cover,Review,Of Group renewal and discussion with BP,01:00,50,,50,50,,
FPS,steven@coffipad.com,03/03/2016,New Legislation,Correspondence ,2 separate emails to Karly of Caentralus,12:10,50,,5,1100,,
L A Recruitment,steven@coffipad.com,28/04/2017,Insurance claim,Telephone,bobby boag and review of terms of legal expenses cover policy,12:25,50,,20.83,1850,,
Coffipad,steven@coffipad.com,29/03/2016,Media Project,Telephone,Telephone call with Craig,12:40,75,,30,3900,,
Coffipad,steven@coffipad.com,23/10/2016,Media Project,Drafting,Maintenance agreement for nimble,04:45,75,,356.25,3675,,
FPSG,steven@coffipad.com,15/07/2016,Trinity Mirror,correspondence,Trinity Mirror Debt,12:15,50,,12.5,1350,,
Tec EMEA,steven@coffipad.com,16/08/2016,Contract Review,review,Contract and tender doc for Qatar Petroleum,03:30,50,,175,1650,,
FPS,steven@coffipad.com,29/03/2016,NATS,Review and Telephone,Review of Contract and Contact Gavin Maitland,01:00,50,,50,50,,
Tec EMEA,steven@coffipad.com,14/07/2016,personal accident covr,correspondence,Email Robert,12:05,50,,4.17,850,,
Tec EMEA,steven@coffipad.com,31/03/2016,Taqa Iraq,Consideration,Considering email from John H contract and side letters,12:45,50,,22.5,2850,,
Coffipad,steven@coffipad.com,08/09/2016,Media Project,Correspondence,With Kevin and Discuss with CD,12:15,75,,18.75,2025,,
Net Talent,steven@coffipad.com,04/11/2016,Wonderworld,Assorted calls,Telephone,12:15,50,,12.5,1350,,
Coffipad,steven@coffipad.com,04/05/2016,Media Project,Meeting,Meeting Zaque and Ather regarding the aggregator and how this will work,01:00,75,,75,75,,
Tec uk,steven@coffipad.com,05/04/2016,Share Transfer (LA),email,various emails with JH,12:05,50,,2.5,850,,
MyBpos,steven@coffipad.com,14/03/2016,General,Meeting,JH and RL,01:00,50,,50,50,,
Coffipad,steven@coffipad.com,07/03/2016,Media Project,Correspondence ,assorted emails,12:05,75,,3.75,1275,,
Tec USA,steven@coffipad.com,22/03/2017,USA Insurance,Correspondence,updaes on workers comp issues,12:15,50,,12.5,1350,,
FPS,steven@coffipad.com,19/07/2016,Aegem,Drafting,Aegem response,12:15,50,,12.5,1350,,
Coffipad,steven@coffipad.com,26/08/2016,Media Project,Meeting,Zaque and Ather,01:00,75,,75,75,,
L A Recruitment,steven@coffipad.com,03/05/2017,Insurance claim,Telephone,discussion with RL,12:10,50,,8.33,1100,,
FPS,steven@coffipad.com,08/08/2016,Msa,Drafting,Drafting MSA,03:00,50,,150,150,,
Tec USA,steven@coffipad.com,08/03/2016,kbc,Correspondence,email Adam,12:05,50,,2.5,850,,
L A Recruitment,steven@coffipad.com,15/03/2017,Insurance claim,correspondence ,Various ,12:10,50,,8.33,1100,,
Coffipad,steven@coffipad.com,26/08/2016,Media Project,Telephone,Callum,12:15,75,,18.75,2025,,
Coffipad,steven@coffipad.com,02/03/2016,Media Project,Correspondence,email re board meeting,12:05,75,,3.75,1275,,
Engage PSG,steven@coffipad.com,14/03/2016,Redwood,correspondence,Email Kevin Re Redwood,12:05,50,,2.5,850,,
Tralee Bay,steven@coffipad.com,30/03/2016,Sale ,Correspondence,Letter to Sally Orr,12:05,50,,2.5,850,,
FPS,steven@coffipad.com,10/11/2016,easyjet ,correspondence,Further dicsussion on liability,12:10,50,,8.33,1100,,
Tec uk,steven@coffipad.com,11/04/2016,Contract Review,draft,Test 2 trials contract,01:30,50,,75,1550,,
FPSG,steven@coffipad.com,23/09/2016,scotsman,Telephone,TC John Agnew,12:15,50,,12.5,1350,,
Engage PSG,steven@coffipad.com,03/03/2017,Property,Telephone,Review of papers and discussion with RL re obligtaions for dilaps,12:10,50,,8.33,1100,,
FPS,steven@coffipad.com,07/02/2017,Turbine Services removal of Agile,review of ,Review contract position and reporting to Tracey,01:00,50,,50,50,,
Tec EMEA,steven@coffipad.com,04/07/2016,NOw HEalth,Correspondence - Email Robert Re policy and questions,Email to Robert,12:15,50,,12.5,1350,,
Net Talent,steven@coffipad.com,09/03/2016,Wonderworld,correspondence,Email Yvonne with update,12:06,50,,3,900,,
Coffipad,steven@coffipad.com,13/09/2016,Media Project,correspondence,Terms and Conditions to Academy and discussion with Kevin,12:30,75,,37.5,3150,,
Engage PSG,steven@coffipad.com,21/03/2017,linex systems,Review ,materials and advising,01:00,50,,50,50,,
FPS,steven@coffipad.com,22/07/2016,Chromalloy,Correspondence ,email,12:05,50,,4.17,850,,
Coffipad,steven@coffipad.com,26/03/2016,Media Project,Research,Advertising Aggregateors,02:00,75,,150,150,,
FPS,steven@coffipad.com,06/04/2016,MacLaughlin  and Harvey,Email,Email Tracey with update,12:05,50,,2.5,850,,
Coffipad,steven@coffipad.com,21/04/2016,Media Project,drafting,Profile Doc,01:30,75,,112.5,2325,,
Coffipad,steven@coffipad.com,02/09/2016,Media Project,Meeting,Zaque and Ather and discussion with Craig,01:30,75,,112.5,2325,,
Net Talent,steven@coffipad.com,11/07/2016,Cigma Tender,Correspondence,correspondence re Cyber Liability policy quote,12:15,50,,12.5,1350,,
MyBpos,steven@coffipad.com,25/04/2016,General,Review,Bupa Renewal,12:30,50,,25,2100,,
FPS,steven@coffipad.com,06/03/2017,Consolidiated Aerospace,Contract review,Review and revert on terms,02:30,50,,125,1600,,
L A Recruitment,steven@coffipad.com,25/10/2016,Insurance (MIddle East),queries from belwood prestbury,phone,12:15,50,,12.5,1350,,
Net Talent,steven@coffipad.com,01/03/2017,Wonderworld,Telephone,Robert LIttle,12:05,50,,4.17,850,,
MyBpos,steven@coffipad.com,04/08/2016,General,Meeting,Catch up with Robert,01:00,50,,50,50,,
Tec USA,steven@coffipad.com,01/03/2016,Tec USA,Insurnace,Various discussions and review of workers compensation insurance in the US,02:00,50,,100,100,,
L A Recruitment,steven@coffipad.com,24/04/2017,Insurance claim,Telephone,john hailstone,12:15,50,,12.5,1350,,
Tec EMEA,steven@coffipad.com,07/07/2016,Insurance,Correspondence,Peter Bellwood,12:10,50,,8.33,1100,,
Coffipad,steven@coffipad.com,29/03/2016,Media Project,Meeting,Meeting Stephen Oneil from Cinch Ideas,01:30,75,,97.5,2325,,
L A Recruitment,steven@coffipad.com,10/03/2017,Insurance claim,Correspondence,chasing hiscox,12:05,50,,4.17,850,,
Tec EMEA,steven@coffipad.com,25/10/2016,Insurance (MIddle East),Additional queries,from insurers,12:30,50,,25,2100,,
Coffipad,steven@coffipad.com,12/05/2016,Media Project,Telephone,TC CD,12:30,75,,37.5,3150,,
Net Talent,steven@coffipad.com,29/11/2016,Wonderworld,Telephone,lawyers,12:15,50,,12.5,1350,,
Coffipad,steven@coffipad.com,18/03/2016,Media Project,Meeting,Board Meeting and with Andrew Sibley,08:00,75,,600,600,,
Tec USA,steven@coffipad.com,04/03/2016,kbc,Correspondence ,ADAM jackson,12:05,50,,2.5,850,,
Coffipad,steven@coffipad.com,08/03/2016,Media Project,Correspondence,email craig,12:05,75,,3.75,1275,,
Tec USA,steven@coffipad.com,01/11/2016,USA Insurance,Discussion,With Kingsbridge,01:00,50,,50,50,,
MyBpos,steven@coffipad.com,08/09/2016,Scottish Power,Correspondence,Simon Knox,12:05,50,,4.17,850,,
Tec EMEA,steven@coffipad.com,04/04/2016,DED Docs,Correspondence,Correspondence re Docs,12:15,50,,12.5,1350,,
MyBpos,steven@coffipad.com,17/10/2016,insurance,review of ,renewal terms,01:00,50,,50,50,,
FPS,steven@coffipad.com,20/04/2016,Contract Review,Review,Antworks Contract,02:00,50,,100,100,,
Net Talent,steven@coffipad.com,18/11/2016,Cigma,Telephone,RW,12:10,50,,8.33,1100,,
L A Recruitment,steven@coffipad.com,07/02/2017,Insurance,Correspondence,Correspondence with DAS etc,12:15,50,,12.5,1350,,
Coffipad,steven@coffipad.com,19/09/2016,media,correspondence,fleet policy,12:05,75,,6.25,1275,,
Coffipad,steven@coffipad.com,01/09/2016,Media Project,Correspondence,Discussion re expenses,12:10,75,,12.5,1650,,
Tec uk,steven@coffipad.com,04/04/2016,General,Drafting,Drafting and correspondence re the transfer of Wills Shares,12:30,50,,25,2100,,
Tec EMEA,steven@coffipad.com,20/10/2016,Insurance (MIddle East),Review of personal accident cover,review,01:00,50,,50,50,,
FPS,steven@coffipad.com,04/04/2016,Contract Review,Review,Billfinger Berger Contract,01:30,50,,75,1550,,
Tec EMEA,steven@coffipad.com,03/05/2017,Insurance (MIddle East),Correspondence,Request from brokers for update on figures, discussing same,12:15,50,,12.5,1350,,
MyBpos,steven@coffipad.com,24/11/2016,Generl,Telephone,Call Robert,12:15,50,,12.5,1350,,
Coffipad,steven@coffipad.com,07/09/2016,Media Project,Telephone,Discussion CD re leasing etc,12:10,75,,12.5,1650,,
L A Recruitment,steven@coffipad.com,24/04/2016,Contracts,Review,Review of LA recruitment contracts and reverting to Naveed,01:30,50,,75,1550,,
Tec uk,steven@coffipad.com,21/03/2016,Insurance,Telephone,Telephone Peter Bellwood re Now Health Insurance,12:15,50,,7.5,1350,,
FPS,steven@coffipad.com,11/07/2016,Spirit Aviation,Correspondence,Emails,12:15,50,,12.5,1350,,
Coffipad,steven@coffipad.com,17/03/2016,Media Project,correspondence,Re Lombard Financing,12:10,75,,7.5,1650,,
Coffipad,steven@coffipad.com,21/04/2016,Media Project,Drafting,Advert,03:00,75,,225,225,,
FPS,steven@coffipad.com,01/08/2016,Contract Review,Review,Review of Amgem Contract and discussion re the requisite insurances,01:30,50,,75,1550,,
Coffipad,steven@coffipad.com,31/03/2016,Media Project,Correspondence,Assorted Texts,12:05,75,,3.75,1275,,
Tec EMEA,steven@coffipad.com,24/10/2016,Medical Cover,Pricing additional Cover,Telephone conference,12:20,50,,16.67,1600,,
Tec EMEA,steven@coffipad.com,27/10/2016,insurance,queries from naveed,phone,12:05,50,,4.17,850,,
Tec USA,steven@coffipad.com,03/03/2016,kbc,Drafting,response to client email for adam,12:15,50,,7.5,1350,,
FPS,steven@coffipad.com,21/04/2016,Contracts,Drafting,Amendments to contracts per discussion with John Reid,12:15,50,,12.5,1350,,
Coffipad,steven@coffipad.com,31/03/2016,Media Project,Drafting,Updates to Website and to Mailchimp Mailer,03:00,75,,225,225,,
Coffipad,steven@coffipad.com,23/04/2016,Amendments to mailer,drafting,amendments,04:00,75,,300,300,,
Coffipad,steven@coffipad.com,16/05/2016,Media Project,Meeting,Attending Service point re cardboard,12:30,75,,37.5,3150,,
L A Recruitment,steven@coffipad.com,02/03/2017,Insurance claim,Correspondence,various,12:15,50,,12.5,1350,,
Tec uk,steven@coffipad.com,01/09/2016,Insurance,Correspondence,Regards a Nigerian Contractor,12:35,50,,29.17,2350,,
L A Recruitment,steven@coffipad.com,09/03/2016,Insurance,Review,Further work on insurance claim and discussion with B Boag and Hiscox,01:30,50,,65,1550,,
L A Recruitment,steven@coffipad.com,27/04/2017,Insurance claim,Telephone,R Little,12:10,50,,8.33,1100,,
Tec USA,steven@coffipad.com,25/04/2017,Insurance (USA),drafting,Additional forms for Kinsbridge,12:30,50,,25,2100,,
Tec EMEA,steven@coffipad.com,01/03/2016,KRG Contract,Correspondence,Assisting Naveed with tender submission,02:00,50,,100,100,,
Coffipad,steven@coffipad.com,06/06/2016,Media Project,Telephone,Discussion with Aggregators,02:00,75,,150,150,,
Coffipad,steven@coffipad.com,25/08/2016,Media Project,Telephone,Alan Jones,01:00,75,,75,75,,
L A Recruitment,steven@coffipad.com,15/03/2017,Insurance claim,correspondence,Email to hiscoc and assorted telephone calls,12:20,50,,16.67,1600,,
L A Recruitment,steven@coffipad.com,27/10/2016,General,Discussion,re slavek,12:10,50,,8.33,1100,,
Coffipad,steven@coffipad.com,15/09/2016,Media Project,correspondence,dealing with code hand over,12:10,75,,12.5,1650,,
Tec EMEA,steven@coffipad.com,16/03/2016,ENI,review o,Review of PCG,12:30,50,,15,2100,,
Coffipad,steven@coffipad.com,11/04/2016,Media Project,Various,radiator and daily r,03:00,75,,225,225,,
Coffipad,steven@coffipad.com,30/03/2016,Media Project,Drafting,Various updates to Basecamp,12:15,75,,11.25,2025,,
Coffipad,steven@coffipad.com,01/09/2016,Media Project,Meeting,Craig and Ather,02:00,75,,150,150,,
FPSG,steven@coffipad.com,04/11/2016,Trinity Mirror,Telephone,Counsel for TM,12:10,50,,8.33,1100,,
Coffipad,steven@coffipad.com,12/05/2016,Media Project,Drafting,updates to Basecamp,12:30,75,,37.5,3150,,
Coffipad,steven@coffipad.com,09/03/2016,Media Project,correspondence,email re Andrew Sibley,12:05,75,,3.75,1275,,
Coffipad,steven@coffipad.com,03/03/2016,Media Project,Telephone,Telephone Craig,12:30,75,,22.5,3150,,
L A Recruitment,steven@coffipad.com,05/04/2016,General,Drafting,Correspondence and documentation re the share transfer,12:30,50,,25,2100,,
Coffipad,steven@coffipad.com,12/05/2016,Media Project,Telephone,TC CD,12:20,75,,25,2400,,
MyBpos,steven@coffipad.com,05/09/2016,Insurance,Correspondence,Chasing renewl docs for the fleet policy,12:05,50,,4.17,850,,
SCCP,steven@coffipad.com,04/04/2017,Contract review,Reiew of terms,Review of terms and then noting on hold,01:30,50,,75,1550,,
FPS,steven@coffipad.com,07/07/2016,Contract Review,Amgem,assorted correspondence,12:30,50,,25,2100,,
Coffipad,steven@coffipad.com,04/04/2016,Media Project,Telephone,Alan Jones,12:15,50,,7.5,1350,,
L A Recruitment,steven@coffipad.com,04/04/2017,Insurance claim,Correspondence,Das, calling lianne and noting, their letter crossed wtih ours,12:15,50,,12.5,1350,,
Engage PSG,steven@coffipad.com,04/07/2016,telephone,Catch up,Review with Kevin,12:05,50,,4.17,850,,
Coffipad,steven@coffipad.com,26/03/2016,Media Project,Research,Researching Media Sources, aggregators and different mediums of advertising both through aggregators and traditional agencies,04:30,75,,322.5,2550,,
Coffipad,steven@coffipad.com,10/03/2016,Media Project,correspondence,email,12:05,75,,3.75,1275,,
Coffipad,steven@coffipad.com,25/08/2016,Media Project,Meeting,Meeting CD,02:30,75,,187.5,2400,,
L A Recruitment,steven@coffipad.com,13/03/2017,Insurance claim,Correspondence,emails,12:05,50,,4.17,850,,
Tec USA,steven@coffipad.com,04/05/2016,Contract Review,Review,Syngenta -various correspondence (two contracts),04:00,50,,200,200,,
Coffipad,steven@coffipad.com,07/03/2016,Media Project,Correspondence ,email craig,12:05,75,,3.75,1275,,
Coffipad,steven@coffipad.com,17/09/2016,Media Project,Various,Attending Zaque and Athers to ensure source code etc is passed over properly,01:30,75,,112.5,2325,,
Net Talent,steven@coffipad.com,05/08/2016,Wonderworld,Correspondence,update,12:10,50,,8.33,1100,,
Tec USA,steven@coffipad.com,18/03/2016,kbc,Telephone,Adam Jackson,12:10,50,,5,1100,,
Net Talent,steven@coffipad.com,03/03/2016,Wonderworld,email,Yvonne,12:05,50,,2.5,850,,
FPS,steven@coffipad.com,07/07/2016,Vaultdawn,Correspondence,John Reid re outstanding account.,12:10,50,,8.33,1100,,
FPSG,steven@coffipad.com,22/09/2016,scotsman,Drafting,Statement of John Agnew,01:00,50,,50,50,,
Tec uk,steven@coffipad.com,29/02/2016,Kathleen Peters,Correspondence,Email Imogen Bowers,12:10,50,,5,1100,,
Net Talent,steven@coffipad.com,07/07/2016,Delbag,Correspondence,to Robert and to Delbag,12:10,50,,8.33,1100,,
L A Recruitment,steven@coffipad.com,16/11/2016,insurance,Correspondence,Assorted Calls (17 No),01:00,50,,50,50,,
Coffipad,steven@coffipad.com,12/10/2016,Media Project,Telephone,Craig,01:15,50,,62.5,800,,
Coffipad,steven@coffipad.com,02/09/2016,Media Project,Admin,Phone for Ryan,12:05,75,,6.25,1275,,
Net Talent,steven@coffipad.com,27/10/2016,Contract review,Cygma,review comments and revert,01:30,50,,75,1550,,
Coffipad,steven@coffipad.com,29/03/2016,Media Project,Telephone,Telephone call with Firstpoint USA,12:15,75,,11.25,2025,,
Tec USA,steven@coffipad.com,03/03/2016,Insurance,Meeting,Meeting with Bobby Boag re the possibility of covering US under our group policy,01:00,50,,50,50,,
Tec USA,steven@coffipad.com,05/04/2016,Syngenta Corp,Telephone,TC With Adam Jackson,12:15,50,,7.5,1350,,
Tec EMEA,steven@coffipad.com,15/03/2016,Taqa Iraq,Telephone,TC John Hailstone,12:15,50,,7.5,1350,,
MyBpos,steven@coffipad.com,26/10/2016,insurance,queries on fleet policy,phone,01:30,50,,75,1550,,
FPS,steven@coffipad.com,15/03/2016,Contract Review,review,Gillespie People Solutions,01:30,50,,65,1550,,
L A Recruitment,steven@coffipad.com,10/04/2017,Tec EMEA,Correspondence,Worker's comp policy to Suzanne at Tec,12:05,50,,4.17,850,,
MyBpos,steven@coffipad.com,26/04/2016,General,Meeting,Meeting with John Hailstone,01:00,50,,50,50,,
Net Talent,steven@coffipad.com,15/08/2016,Weir Group,Reiew of terms,Review of terms and comment,12:30,50,,25,2100,,
Coffipad,steven@coffipad.com,05/03/2016,Media Project,Drafting,pre launch checklist,12:45,75,,33.75,4275,,
Tec EMEA,steven@coffipad.com,13/07/2016,Kidnap and Ransom Cover,Telephone,Telephone attendance with Peter Bellwood,12:15,50,,12.5,1350,,
L A Recruitment,steven@coffipad.com,13/03/2017,Insurance claim,correspondence,long email to DAS/Hiscox,01:00,50,,50,50,,
L A Recruitment,steven@coffipad.com,08/03/2016,Insurance,Telephone,Telephone discussion with underwriters re claim,01:30,50,,65,1550,,
Coffipad,steven@coffipad.com,29/04/2016,Media Project,Meeting,Craig, together with Ather etc,09:00,75,,675,675,,
Coffipad,steven@coffipad.com,08/03/2016,Media Project,Conference Call,Preparation call prior to meeting ( Conf call with CD),02:30,75,,172.5,2400,,
L A Recruitment,steven@coffipad.com,06/04/2016,General,Correspondence,correspondence re fire insurance,12:15,50,,12.5,1350,,
Net Talent,steven@coffipad.com,20/07/2016,Wonderworld,Meeting,Discussion with David Ramsay,12:15,50,,12.5,1350,,
Tec USA,steven@coffipad.com,07/04/2016,Syngenta Corp,Drafting,Update liability clause,12:15,50,,12.5,1350,,
Tec uk,steven@coffipad.com,31/03/2016,Contract Review,Review,Review of Pharmiweb Solutions Contract,01:00,50,,50,50,,
Engage PSG,steven@coffipad.com,17/10/2016,Redwood,Telephone,kevin Cruikshank,12:10,50,,8.33,1100,,
Net Talent,steven@coffipad.com,16/03/2016,Wonderworld,correspondence,Email Yvonne with update,12:10,50,,5,1100,,
FPS,steven@coffipad.com,05/04/2016,MacLaughlin  and Harvey,Telepohone,Telephone to M&H - update to Tracey,12:30,50,,25,2100,,
L A Recruitment,steven@coffipad.com,24/04/2017,Insurance claim,Correspondence,Various updates and calls re the claim discussing with DAS and sending copy of burness Rates,12:30,50,,25,2100,,
Coffipad,steven@coffipad.com,17/09/2016,media,correspondence,Assorted re lock down,12:10,75,,12.5,1650,,
MyBpos,steven@coffipad.com,01/07/2016,Openbook,Review,Review of Contract and correspondence for Openbook,12:15,50,,12.5,1350,,
Tec EMEA,steven@coffipad.com,05/07/2016,Business Travel Insurance,Telephone,Robert Little,12:05,50,,4.17,850,,
Coffipad,steven@coffipad.com,15/09/2016,Media Project,Drafting,Updates to Callums worksheet,12:10,75,,12.5,1650,,
L A Recruitment,steven@coffipad.com,25/04/2017,Insurance claim,Telephone,lianne Mitson,12:15,50,,12.5,1350,,
Tec EMEA,steven@coffipad.com,21/04/2016,DED Docs,Chasing,Chasing up the infamous docs,01:00,50,,50,50,,
Coffipad,steven@coffipad.com,30/03/2016,Media Project,Telephone,Telephone Craig,12:40,75,,30,3900,,
Tec uk,steven@coffipad.com,06/04/2016,Prismond RSA,Contract Review,Review of contract,01:00,50,,50,50,,
L A Recruitment,steven@coffipad.com,09/03/2016,Insurance,Conference Call,Insurer,01:00,50,,50,50,,
FPSG,steven@coffipad.com,01/09/2016,Trinity Mirror,Tel,Update Robert,12:05,50,,4.17,850,,
Net Talent,steven@coffipad.com,06/09/2016,Contract Review,Review,review of rec to rec terms,01:00,50,,50,50,,
Coffipad,steven@coffipad.com,07/03/2016,Media Project,Telephone,TC Craig Douglas,12:31,75,,23.25,3225,,
Coffipad,steven@coffipad.com,07/09/2016,Media Project,Correspondence,Telephone with CD re tec progress,12:05,75,,6.25,1275,,
Coffipad,steven@coffipad.com,01/09/2016,Media Project,Correspondence,Completion of deployment registartion and associated correspondence,01:00,75,79,154,75,Apple Fee : 79 : -,
Tec USA,steven@coffipad.com,02/03/2016,Insurance,email,Email on the requirements of the policy,12:05,50,,2.5,850,,
MyBpos,steven@coffipad.com,04/08/2016,Tenants Deposit Scheme,Telephone,Discussion with Simon following review of materials (scottish Power),12:20,50,,16.67,1600,,
Tec USA,steven@coffipad.com,01/03/2016,Insurance,Correspondence ,further correspondence on workers comp,12:05,50,,2.5,850,,
MyBpos,steven@coffipad.com,24/10/2016,meeting,Bobby Boag,re renewal terms ,01:15,50,,62.5,800,,
Net Talent,steven@coffipad.com,15/09/2016,Wonderworld,correspondence,Updaet with RL,12:10,50,,8.33,1100,,
L A Recruitment,steven@coffipad.com,26/04/2017,Insurance claim,Telephone,R Little,12:10,50,,8.33,1100,,
Tec USA,steven@coffipad.com,05/04/2016,Syngenta Corp,Drafting,Update to Liability clause and email to Adam,12:15,50,,7.5,1350,,
Tec EMEA,steven@coffipad.com,03/11/2016,Insurance (MIddle East),Personal accident,renewal detaisl and completion and return to BP,01:30,50,,75,1550,,
Coffipad,steven@coffipad.com,30/04/2016,Media Project,review,Facebook, media package update, basecamp and emails,01:00,75,,75,75,,
Tec USA,steven@coffipad.com,03/05/2017,Insurance (USA),correspondence,County breakdown,12:15,50,,12.5,1350,,
Net Talent,steven@coffipad.com,06/09/2016,Wonderworld,Correspondence,update RL re progress,12:10,50,,8.33,1100,,
Tec USA,steven@coffipad.com,23/03/2017,USA Insurance,Correspondence,Stuart at Kingsbridge,12:30,50,,25,2100,,
Coffipad,steven@coffipad.com,29/03/2016,Media Project,Telephone,Telephone call with Blavod Drinks,12:15,75,,11.25,2025,,
MyBpos,steven@coffipad.com,11/10/2016,drafting,Proposal form ,for Kingsbridge,12:30,50,,25,2100,,
Tec uk,steven@coffipad.com,15/03/2017,I P solutions,correspondence,various,12:10,50,,8.33,1100,,
Net Talent,steven@coffipad.com,04/07/2016,correspondence ,Email,Email re wonderworld,12:10,50,,8.33,1100,,
L A Recruitment,steven@coffipad.com,08/03/2017,Insurance claim,meeting,at Bothwell Street,01:30,50,,75,1550,,
Coffipad,steven@coffipad.com,01/03/2016,Media Project,Telephone,Telephone call with Craig,12:45,50,,22.5,2850,,
Coffipad,steven@coffipad.com,03/03/2016,Media Project,Correspondence,Update Andrew Sibley,12:10,75,,7.5,1650,,
MyBpos,steven@coffipad.com,21/09/2016,Insurance,correspondence,INsurance cover note for printers,12:10,50,,8.33,1100,,
L A Recruitment,steven@coffipad.com,04/11/2016,Insurance,Various,Calls re claim,01:00,50,,50,50,,
Coffipad,steven@coffipad.com,22/03/2016,Media Project,meeting,meeting hairdressers,02:00,75,,150,150,,
FPS,steven@coffipad.com,04/08/2016,Aegem,Correspondence,Call and further email with insurers re the contract terms,12:30,50,,25,2100,,
Tec uk,steven@coffipad.com,04/04/2016,Contract Review,Review,Venn Life Contract,01:00,50,,50,50,,
FPS,steven@coffipad.com,20/07/2016,Aegem,draft,response to client,12:10,50,,8.33,1100,,
Tec uk,steven@coffipad.com,13/04/2017,INEOS,Correspondence,Adam Jackson,12:45,50,,37.5,2850,,
Tec uk,steven@coffipad.com,16/03/2016,Insurance,Correspondence ,Robert re now Health,12:05,50,,2.5,850,,
FPS,steven@coffipad.com,11/07/2016,Spirit Aviation,Various,Correspondence,01:00,50,,50,50,,
L A Recruitment,steven@coffipad.com,06/04/2017,Insurance claim,Telephone,Bobby Boag re email from Laura Hodge,12:20,50,,16.67,1600,,
L A Recruitment,steven@coffipad.com,21/03/2017,Insurance claim,various correspondence,calling DAS, Bobby Boag and RL,12:45,50,,37.5,2850,,
FPS,steven@coffipad.com,05/04/2016,Contract Review,Review,Sodex/Atkins Contract,02:00,50,,100,100,,
Coffipad,steven@coffipad.com,21/04/2016,Media Project,Meeting,Craig in Edinburgh,03:00,75,,225,225,,
Engage PSG,steven@coffipad.com,17/11/2016,Redwood,Correspondence,Agreeing  to go through money collection service instead of the local county court,01:00,50,,50,50,,
Coffipad,steven@coffipad.com,15/03/2016,Media Project,Telephone,Telephone discussion re Free Telecom,12:30,75,,22.5,3150,,
Coffipad,steven@coffipad.com,16/05/2016,Media Project,Telephone,Telephone conference Craig and Alan,12:30,75,,37.5,3150,,
Coffipad,steven@coffipad.com,07/09/2016,Media Project,Correspondence,Academy and contract,12:15,75,,18.75,2025,,
Tec USA,steven@coffipad.com,03/03/2016,Insurance,Telephone,Telephone Robert Watson,12:05,50,,2.5,850,,
FPS,steven@coffipad.com,19/04/2017,Ethos Energy,Contract Review,Review of contract and correspondence,02:30,50,,125,1600,,
Tec EMEA,steven@coffipad.com,27/10/2016,insurance,queries from naveed,phone,12:05,50,,4.17,850,,
Coffipad,steven@coffipad.com,27/04/2016,Media Project,Meeting,Craig, Zaque and Ather,02:00,75,,150,150,,
L A Recruitment,steven@coffipad.com,06/03/2017,Insurance claim,Correspondence,email,12:05,50,,4.17,850,,
FPS,steven@coffipad.com,04/07/2016,Spirit Aviation,Review and Drafting,Various work on contract,01:15,50,,62.5,800,,
Net Talent,steven@coffipad.com,05/07/2016,Wonderworld,Drafting,Amendments to agreement,12:10,50,,8.33,1100,,
Coffipad,steven@coffipad.com,15/03/2016,Media Project,correspondence,Email Calum,12:05,75,,3.75,1275,,
FPS,steven@coffipad.com,15/09/2016,Contract review,Review ,Terms for Accenture,02:00,50,,100,100,,
FPS,steven@coffipad.com,09/08/2016,Msa,Telephone,john scott,12:10,50,,8.33,1100,,
Coffipad,steven@coffipad.com,06/09/2016,Media Project,Correspondence,Various discussions on lock down,01:00,75,,75,75,,
L A Recruitment,steven@coffipad.com,21/10/2016,Insurance (MIddle East),Now health - medical cover,review,12:10,50,,8.33,1100,,
Coffipad,steven@coffipad.com,26/08/2016,Media Project,Telephone,Craig,12:30,75,,37.5,3150,,
Coffipad,steven@coffipad.com,13/09/2016,Media Project,Correspondence,Techs and Craig,12:10,75,,12.5,1650,,
L A Recruitment,steven@coffipad.com,16/08/2016,Health Insurance,Correspondence,Associated corres re Slavec,12:10,50,,8.33,1100,,
L A Recruitment,steven@coffipad.com,04/04/2017,Insurance claim,Drafting,Email to Das/Hiscox,01:00,50,,50,50,,
FPSG,steven@coffipad.com,16/03/2017,Trinity Mirror,Telephone,Andrew Spratt,12:15,50,,12.5,1350,,
Engage PSG,steven@coffipad.com,08/11/2016,Redwood,Drafing,Email,12:30,50,,25,2100,,
Tec USA,steven@coffipad.com,02/03/2016,Contract Review,Drafting,Contracts for Adam KBC,01:00,50,,50,50,,
Coffipad,steven@coffipad.com,07/09/2016,Media Project,Correspondence,discussion CD re Andrew Lowe presentation ect,12:05,75,,6.25,1275,,
Tec EMEA,steven@coffipad.com,27/10/2016,Contract review,eni tender,review comments and revert,01:30,50,,75,1550,,
L A Recruitment,steven@coffipad.com,20/04/2017,Insurance claim,Correspondence,Long chat with BB then review of his email then furtehr call,01:00,50,,50,50,,
FPSG,steven@coffipad.com,02/08/2016,Contract Review,Review,Williams and Glynn,02:00,50,,100,100,,
FPS,steven@coffipad.com,20/09/2016,Contract review,Review,Review of Jacobs Terms  plus associated correspondence,02:00,50,,100,100,,
Coffipad,steven@coffipad.com,01/09/2016,Media Project,Correspondence,Review of CB expenses,12:10,75,,12.5,1650,,
FPSG,steven@coffipad.com,04/11/2016,Trinity Mirror,Telephone,Andrew with update,12:10,50,,8.33,1100,,
Coffipad,steven@coffipad.com,08/09/2016,Media Project,Tel,CD,12:20,75,,25,2400,,
Coffipad,steven@coffipad.com,13/09/2016,media,Telephone,TC CD,12:30,75,,37.5,3150,,
FPS,steven@coffipad.com,24/11/2016,Easy Jet,Telephone,Call with Charlene at easyjet,12:45,50,,37.5,2850,,
Engage PSG,steven@coffipad.com,08/11/2016,Drafting ,Amendments to clain,drafting,01:00,50,,50,50,,
L A Recruitment,steven@coffipad.com,08/03/2016,Insurance,Telephone,TC John Hailstone,12:15,50,,7.5,1350,,
SCCP,steven@coffipad.com,20/09/2016,Contract review,review,Review of proposed new lease,01:30,50,,75,1550,,
FPS,steven@coffipad.com,02/03/2016,Contract Review,Review,Atkins Framework Contract,02:00,50,,100,100,,
L A Recruitment,steven@coffipad.com,14/03/2017,Insurance claim,correspondence,Letter from DAS and associated calls,12:15,50,,12.5,1350,,
Coffipad,steven@coffipad.com,18/09/2016,media,correspondence,assorted correspondence,12:30,75,,37.5,3150,,
Coffipad,steven@coffipad.com,24/08/2016,Car insurance,correspondence,email Towergate,12:05,75,,6.25,1275,,
Tec EMEA,steven@coffipad.com,28/10/2016,insurance,telephone pb,re k&r cover,01:00,50,,50,50,,
FPSG,steven@coffipad.com,07/03/2016,Contract Review,Review,Mott Macdonald Contract,01:30,50,,65,1550,,
FPS,steven@coffipad.com,01/11/2016,Easy Jet,Correspondence,Further comments on Easyjet contract,12:30,50,,25,2100,,
L A Recruitment,steven@coffipad.com,25/04/2017,Insurance claim,Telephone,Bobby Boag,01:00,50,,50,50,,
Tec USA,steven@coffipad.com,03/03/2017,Insurance (USA),Correspondence,With Stuart - he is "nearly there",12:05,50,,4.17,850,,
Coffipad,steven@coffipad.com,15/09/2016,media,Telepohone,TC CD,12:20,75,,25,2400,,
L A Recruitment,steven@coffipad.com,13/03/2017,Insurance claim,Correspondence,Catch up with Robert,12:10,50,,8.33,1100,,
Tec EMEA,steven@coffipad.com,23/10/2016,drafting,amenndments to ,qatar contract,01:00,50,,50,50,,
Engage PSG,steven@coffipad.com,06/04/2017,General,Correspondence,Regarding business interruption (BT),12:30,50,,25,2100,,
Tec uk,steven@coffipad.com,01/03/2016,Contract Review,Correspondence,Correspondence emails regarding the penalty clauses in the Mol contract,12:15,50,,7.5,1350,,
Net Talent,steven@coffipad.com,18/11/2016,Cigma,Correspondence,Various discussions,01:00,50,,50,50,,
Coffipad,steven@coffipad.com,28/03/2016,Media Project,Correspondence ,various correspondence with Craig,01:30,75,,97.5,2325,,
L A Recruitment,steven@coffipad.com,27/04/2017,Insurance claim,Telephone,bobby boag,12:15,50,,12.5,1350,,
L A Recruitment,steven@coffipad.com,09/03/2017,Insurance claim,Correspondence,with Das re Burness appointment outwith pannel.,12:30,50,,25,2100,,
Tec USA,steven@coffipad.com,03/03/2016,Insurance,Review,original insurance,12:10,50,,5,1100,,
Coffipad,steven@coffipad.com,11/04/2016,Media Project,Review,Information re telecom opportunity,12:30,75,,22.5,3150,,
FPSG,steven@coffipad.com,08/11/2016,Trinity Mirror,Drafting,Email,12:35,50,,29.17,2350,,
Tec EMEA,steven@coffipad.com,15/11/2016,Insurance (MIddle East),Correspondence,Issues arising from WC Policy and wage discrepancies,01:45,50,,87.5,2300,,
L A Recruitment,steven@coffipad.com,27/04/2017,Insurance claim,Telephone,bobby boag,12:25,50,,20.83,1850,,
Engage PSG,steven@coffipad.com,17/10/2016,Redwood,preparing docs,for court,12:30,50,,25,2100,,
L A Recruitment,steven@coffipad.com,14/03/2017,Insurance claim,Telephone ,RL re LA Claim,12:15,50,,12.5,1350,,
Tec EMEA,steven@coffipad.com,14/03/2016,Dubai Licence,Correspondence ,Email Iman,12:05,50,,2.5,850,,
FPS,steven@coffipad.com,05/04/2016,Centralaus,Correspondence,Various emails with Karly at Cantralaus re the contracts, also emails with John Reid,12:30,50,,15,2100,,
L A Recruitment,steven@coffipad.com,06/04/2017,Insurance claim,Correspondence,Assorted emails,12:30,50,,25,2100,,
Coffipad,steven@coffipad.com,02/03/2016,Media Project,Correspondence,email re Andrew Sibley,12:15,75,,11.25,2025,,
L A Recruitment,steven@coffipad.com,07/02/2017,Insurance,Telephone,Telephone with Leanne at DAS,12:15,50,,12.5,1350,,
Coffipad,steven@coffipad.com,07/02/2017,Media Project,Meeting,Board Meeting,03:00,50,,150,150,,
Tec USA,steven@coffipad.com,08/03/2016,kbc,correspondence,Email and Phone to Adam,12:15,50,,7.5,1350,,
Tec USA,steven@coffipad.com,05/04/2017,Insurance (USA),Conference Call,Stuart at Kingsbridge,12:10,50,,8.33,1100,,
Net Talent,steven@coffipad.com,21/03/2017,Leidos,Various,Correspondence,02:30,50,,125,1600,,
Tec uk,steven@coffipad.com,01/03/2016,Contract Review,Amending Contract,Amendments to Kathleen Peters Contract,12:10,50,,5,1100,,
MyBpos,steven@coffipad.com,18/03/2016,General,Telephone,Robert Little,12:26,50,,13,1900,,
Tec uk,steven@coffipad.com,05/04/2017,INEOS,Review,further amendments to Ineos Contract,12:30,50,,25,2100,,
Tec uk,steven@coffipad.com,02/03/2017,I P solutions,Correspondence,Assorted correspondence with team and review of position,01:00,50,,50,50,,
Tec USA,steven@coffipad.com,02/03/2016,Insurance,email,Email on the requirements of the policy,12:05,50,,2.5,850,,
Tec USA,steven@coffipad.com,06/04/2017,Insurance (USA),Correspondence,USA insurance,12:15,50,,12.5,1350,,
FPS,steven@coffipad.com,03/03/2017,Construction Worker's Guild,Contract Review,Review of terms and revert to Tracey/ John,02:00,50,,100,100,,
Coffipad,steven@coffipad.com,10/03/2016,Media Project,Drafting,Deal for Andrew Sibley,01:30,75,,97.5,2325,,
Net Talent,steven@coffipad.com,16/03/2017,A2etch,Contract Review,and various emails,12:45,50,,37.5,2850,,
Tec EMEA,steven@coffipad.com,16/03/2016,ENI,Telephone,Naveed Re ENI Bid and associated letters required,12:30,50,,15,2100,,
L A Recruitment,steven@coffipad.com,19/04/2017,Insurance claim,correspondence,Call with Bobby Boag re email from Laura Hodge,12:15,50,,12.5,1350,,
Tec USA,steven@coffipad.com,14/03/2017,Insurance (USA),correspondence,Kingsbridge Finalise cover,12:15,50,,12.5,1350,,
Coffipad,steven@coffipad.com,14/03/2016,Media Project,Telephone,TC with Craig,12:40,75,,30,3900,,
Coffipad,steven@coffipad.com,09/03/2016,Media Project,Meeting ,Board Meeting in Edinburgh,08:00,75,,600,600,,
Tec USA,steven@coffipad.com,04/04/2016,drafting,Drafting,Amednments to Syngenta Contract,12:10,50,,5,1100,,
FPS,steven@coffipad.com,10/03/2016,New Legislation,Correspondence ,email and call with Karly and Caentralus,12:10,50,,5,1100,,
FPSG,steven@coffipad.com,14/03/2016,Balmoral Hotel,Telephone,TC John  Agnew,12:10,50,,5,1100,,
Coffipad,steven@coffipad.com,08/03/2016,Media Project,Meeting,Ather and zaque,01:30,75,,97.5,2325,,
FPS,steven@coffipad.com,04/04/2016,Contract Review,review,Bilfinger Berger Contract,01:30,50,,65,1550,,
FPS,steven@coffipad.com,02/03/2016,New Legislation,Correspondence,Emails from Karly at Centralus,12:05,50,,2.5,850,,
Coffipad,steven@coffipad.com,25/03/2016,Media Project,Telephone,TC Craig,01:45,75,,108.75,3450,,
Tec uk,steven@coffipad.com,05/04/2016,Share transfer (WILL),email,Various emails with JH,12:05,50,,2.5,850,,
Coffipad,steven@coffipad.com,03/06/2016,Media Project,Telephone,TC Craig,01:00,75,,75,75,,
L A Recruitment,steven@coffipad.com,22/08/2016,Insurance,Correspondence,various,01:30,50,,75,1550,,
Coffipad,steven@coffipad.com,03/10/2016,Media Project,Meeting,Meeting in Edinburgh,07:00,75,,525,525,,
Tec USA,steven@coffipad.com,30/01/2017,USA Insurance,meeting,reneal,07:30,50,,375,1850,,
Coffipad,steven@coffipad.com,01/10/2016,Media Project,correspondence,several emails from Craig,12:15,75,,18.75,2025,,
Tec USA,steven@coffipad.com,30/03/2017,Insurance (USA),Correspondence,Stuart at Kingsbridge,12:10,50,,8.33,1100,,
FPS,steven@coffipad.com,10/01/2017,General,provising advice on issue with,job advertising and interview fro TV,12:45,50,,37.5,2850,,
FPS,steven@coffipad.com,04/10/2016,Centralaus,correspondence,email re issues,12:05,50,,4.17,850,,
SCCP,steven@coffipad.com,24/01/2017,Licence,Reiew of terms,licence Hope Street,12:30,50,,25,2100,,
L A Recruitment,steven@coffipad.com,12/01/2017,Insurance,correspondence,email DAS/Hiscox,01:30,50,,75,1550,,
MyBpos,steven@coffipad.com,05/10/2016,insurance,Attendance at presentation,Re group insurance renewal (Alternate quote),01:30,50,,75,1550,,
Net Talent,steven@coffipad.com,18/08/2016,Wonderworld,Correspondence,Update Robert and discuss,12:10,50,,8.33,1100,,
Tec EMEA,steven@coffipad.com,25/08/2016,io oil,review of terms,review comments and revert,12:15,50,,12.5,1350,,
L A Recruitment,steven@coffipad.com,18/01/2016,Insurance claim,Drafting,email and liaising with John, Robert and Bobby Boag,01:31,50,,75.83,1600,,
L A Recruitment,steven@coffipad.com,23/03/2017,Insurance claim,Correspondence,email RL,12:05,50,,4.17,850,,
L A Recruitment,steven@coffipad.com,30/01/2017,Insurance,call and emails ,with Leanne at DAS,12:20,50,,16.67,1600,,
Coffipad,steven@coffipad.com,04/10/2016,Media Project,correspondence,re IOS Quote, issues in argument,12:05,75,,6.25,1275,,
Coffipad,steven@coffipad.com,26/04/2016,Media Project,Telephone,cd,12:25,75,,31.25,2775,,
L A Recruitment,steven@coffipad.com,09/01/2017,Insurance claim,Meeting,meeting re ongoing claim,02:00,50,,100,100,,
Tec USA,steven@coffipad.com,10/01/2017,Insurance (USA),Telephone,conf call with Sam at Kingsbridge re US coverage,01:00,50,,50,50,,
Tec uk,steven@coffipad.com,24/03/2017,Fosfa,Contract Review,review of terms,02:30,50,,125,1600,,
Tec uk,steven@coffipad.com,23/03/2017,I P solutions,Correspondence,chaser - ips,12:10,50,,8.33,1100,,
FPS,steven@coffipad.com,10/01/2017,Contract review,Review,Falcon aviation,02:00,50,,100,100,,
Engage PSG,steven@coffipad.com,18/08/2016,Redwood,Drafting,and preparation for court proceedings,01:00,50,,50,50,,
Engage PSG,steven@coffipad.com,17/01/2017,Insurance,Property,discussion with Robert discussing with Towergate and review of licence,01:30,50,,75,1550,,
Tec uk,steven@coffipad.com,30/03/2017,I P solutions,Correspondence,update,12:15,50,,12.5,1350,,
L A Recruitment,steven@coffipad.com,27/03/2017,Insurance (USA),Telephone,various emails,12:30,50,,25,2100,,
FPS,steven@coffipad.com,04/01/2017,Contract review,response,response to contractor queries,12:10,50,,8.33,1100,,
Tec USA,steven@coffipad.com,30/03/2017,Insurance (USA),Correspondence,Stuart at Kingsbridge,12:10,50,,8.33,1100,,
FPS,steven@coffipad.com,10/01/2017,General,provising advice on issue with,job advertising and interview fro TV,12:45,50,,37.5,2850,,
Tec EMEA,steven@coffipad.com,04/10/2016,Middle East Insurance Renewal,Attendance,Conference Call,01:00,50,,50,50,,
L A Recruitment,steven@coffipad.com,27/03/2017,Insurance claim,Telephone,R Little,12:05,50,,4.17,850,,
MyBpos,steven@coffipad.com,05/01/2017,General,Catch up,Catch up with Robert,12:31,50,,25.83,2150,,
L A Recruitment,steven@coffipad.com,29/03/2017,Insurance claim,Correspondence,JH and RL ,12:15,50,,12.5,1350,,
FPSG,steven@coffipad.com,16/08/2016,Trinity Mirror,drafting,letter and preparation ,01:00,50,,50,50,,
Tec USA,steven@coffipad.com,24/01/2017,Health Insurance,correspondence,with broker,12:15,50,,12.5,1350,,
Tec USA,steven@coffipad.com,30/03/2017,Insurance (USA),Telephone,stuart armstrong,12:10,50,,8.33,1100,,
Tec EMEA,steven@coffipad.com,10/01/2017,Sheikh,Drafting,contract with Sheikh,01:15,50,,62.5,800,,
L A Recruitment,steven@coffipad.com,16/01/2017,Insurance claim,Meeting ,Bobby Boag,01:15,50,,62.5,800,,
Engage PSG,steven@coffipad.com,27/01/2017,Redwood,update,providing update,12:15,50,,12.5,1350,,
MyBpos,steven@coffipad.com,03/10/2016,Scottish Power,Telephone,TC Simon Knox - no further action required,12:05,50,,4.17,850,,
Tec EMEA,steven@coffipad.com,03/01/2017,Insurance,Correspondence,email from Belwwod Prestbury,12:05,50,,4.17,850,,
Net Talent,steven@coffipad.com,16/01/2017,oakcrew,correspondence,ian wells,12:30,50,,25,2100,,
Tec uk,steven@coffipad.com,30/03/2017,CABOT,Contract Review,review and advise,02:30,50,,125,1600,,
FPS,steven@coffipad.com,11/01/2017,Contract review,review roberts comments,on falcon,12:20,50,,16.67,1600,,
Coffipad,steven@coffipad.com,03/06/2016,Media Project,marketing emails and text for video,Preparing same,05:00,75,,375,375,,
L A Recruitment,steven@coffipad.com,28/03/2017,Insurance claim,Correspondence,re claim,12:05,50,,4.17,850,,
Tec EMEA,steven@coffipad.com,30/01/2017,Sheikh,update,Updating drafting to Sheikh contract,01:30,50,,75,1550,,
L A Recruitment,steven@coffipad.com,24/08/2016,Insurance,Correspondence,Assorted re claim,12:30,50,,25,2100,,
Tec USA,steven@coffipad.com,29/03/2017,Insurance (USA),Correspondence,Further info to Stuart Armstring,12:15,50,,12.5,1350,,
Coffipad,steven@coffipad.com,04/10/2016,Media Project,correspondence,Discussion re back end,12:15,75,,18.75,2025,,
L A Recruitment,steven@coffipad.com,19/09/2016,Health Insurance,Correspondence ,Assorted correspondence with brokers re MIchelle's query,12:15,50,,12.5,1350,,
Tec EMEA,steven@coffipad.com,19/08/2016,Qatar Petroleum,Correspondence,Corres with will re Bond,12:09,50,,7.5,1050,,
FPS,steven@coffipad.com,11/01/2017,General,further advice,on seizure issue,12:45,50,,37.5,2850,,
Net Talent,steven@coffipad.com,18/08/2016,Wonderworld,Correspondence,Update Robert and discuss,12:10,50,,8.33,1100,,
MyBpos,steven@coffipad.com,24/08/2016,Motor Insurance,Review of renewal terms,Review of terms,01:15,50,,62.5,800,,
Tec USA,steven@coffipad.com,31/03/2017,Insurance (USA),Telephone,Stuart at Kingsbridge,12:15,50,,12.5,1350,,
Tec EMEA,steven@coffipad.com,24/01/2017,Sheikh,Drafting,contract,04:15,50,,212.5,950,,
Tec EMEA,steven@coffipad.com,09/01/2017,uae insurance,Correspondence,checking info from chris,01:15,50,,62.5,800,,
Net Talent,steven@coffipad.com,05/01/2017,oakcrew,Correspondence,offer now off the table - corresponding same with ian wells,12:15,50,,12.5,1350,,
Net Talent,steven@coffipad.com,18/01/2017,oakcrew,Discussion,various discussions re oakcrew sending email against my advice,12:45,50,,37.5,2850,,
Engage PSG,steven@coffipad.com,09/01/2017,Redwood,Telephone,conf call with robert and kevin,12:15,50,,12.5,1350,,
L A Recruitment,steven@coffipad.com,24/01/2017,Insurance claim,correspondence,re invoices,12:30,50,,25,2100,,
FPSG,steven@coffipad.com,27/03/2017,General,Correspondence,Temp insurance,12:30,50,,25,2100,,
L A Recruitment,steven@coffipad.com,27/03/2017,Insurance claim,Correspondence,Review of forms and email GM,01:30,50,,75,1550,,
Tec EMEA,steven@coffipad.com,09/01/2017,Workers Comp,checking ,renewal terms,01:30,50,,75,1550,,
Tec EMEA,steven@coffipad.com,17/01/2017,Sheikh,Drafting,contract with sheikh,01:30,50,,75,1550,,
L A Recruitment,steven@coffipad.com,27/03/2017,Insurance claim,Correspondence,assorted work over 27/28/29/3 pushing on matter since Gary's form.,01:00,50,,50,50,,
Net Talent,steven@coffipad.com,10/01/2017,Wonderworld,Telephone ,call plus reporting on putcome therefrom,12:30,50,,25,2100,,
