name,email,date,job_title,job_reference,hours,rate,expense_value,total,hourly_total,expense_details,
Coffipad,steven@coffipad.com,12/09/2016,Media Project,admin,12:15,75,,18.75,2025,,
Coffipad,steven@coffipad.com,23/09/2016,Media Project,correspondence,12:15,75,,18.75,2025,,
Coffipad,steven@coffipad.com,13/09/2016,Media Project,Conference Call,12:30,75,,37.5,3150,,
Coffipad,steven@coffipad.com,13/09/2016,media,Telephone,12:40,75,,50,3900,,
Coffipad,steven@coffipad.com,13/09/2016,Media Project,correspondence,12:30,75,,37.5,3150,,
Coffipad,steven@coffipad.com,15/09/2016,Media Project,correspondence,12:10,75,,12.5,1650,,
Coffipad,steven@coffipad.com,17/09/2016,Media Project,Various,01:30,75,,112.5,2325,,
Coffipad,steven@coffipad.com,15/09/2016,Media Project,Drafting,12:10,75,,12.5,1650,,
Coffipad,steven@coffipad.com,13/09/2016,media,Telephone,12:30,75,,37.5,3150,,
Coffipad,steven@coffipad.com,15/09/2016,media,Telepohone,12:20,75,,25,2400,,
