hours,rate,date,total,job_title,job_description,
12:15,75,12/09/2016,18.75,Media Project,Dealing with Apple deployment account,
12:15,75,23/09/2016,18.75,Media Project,with Michaela,
12:30,75,13/09/2016,37.5,Media Project,Michaela Academy,
12:40,75,13/09/2016,50,media,TC CD,
12:30,75,13/09/2016,37.5,Media Project,Terms and Conditions to Academy and discussion with Kevin,
12:10,75,15/09/2016,12.5,Media Project,dealing with code hand over,
01:30,75,17/09/2016,112.5,Media Project,Attending Zaque and Athers to ensure source code etc is passed over properly,
12:10,75,15/09/2016,12.5,Media Project,Updates to Callums worksheet,
12:30,75,13/09/2016,37.5,media,TC CD,
12:20,75,15/09/2016,25,media,TC CD,
